%YAML 1.1
%TAG !u! tag:ducklingsengine:
--- !u!1 &1
GameObject:
  m_Layer: Empty Layer
  m_Name: Main Camera
  m_TagString: Untagged
  m_IsActive: 1
--- !u!4 &51
Transform:
  m_GameObject: {fileID: 1}
  m_LocalEulerAngles: {v: 0.000000}
  m_LocalPosition: {x: 960.000000, y: 540.000000}
  m_LocalScale: {x: 1.000000, y: 1.000000}
  m_Parent: {fileID: 1}
--- !u!20 &52
Camera:
  m_GameObject: {fileID: 1}
  m_Enable: 1
  m_Rect: {x: 1920.000000, y: 1080.000000}
  m_BackgroundColor: {r: 1.000000, g: 1.000000, b: 1.000000, a: 1.000000}
--- !u!1 &2
GameObject:
  m_Layer: 
  m_Name: Background
  m_TagString: Untagged
  m_IsActive: 1
--- !u!4 &53
Transform:
  m_GameObject: {fileID: 2}
  m_LocalEulerAngles: {v: 0.000000}
  m_LocalPosition: {x: 960.000000, y: 540.000000}
  m_LocalScale: {x: 1.000000, y: 1.000000}
  m_Parent: {fileID: 2}
--- !u!212 &54
SpriteRenderer:
  m_GameObject: {fileID: 2}
  m_Enable: 1
  m_Sprite: {fileName: Grounds/Ground_Default}
  m_Flip: 0
  m_Color: {r: 1.000000, g: 1.000000, b: 1.000000, a: 1.000000}
  m_RenderType: {type: Stretch}
  m_Slice: {x: 0.000000, y: 0.000000, w: 0.000000, h: 0.000000}
  m_Order: -1
--- !u!1 &3
GameObject:
  m_Layer: Default Layer
  m_Name: TopWall
  m_TagString: Untagged
  m_IsActive: 1
--- !u!4 &55
Transform:
  m_GameObject: {fileID: 3}
  m_LocalEulerAngles: {v: 0.000000}
  m_LocalPosition: {x: 960.000000, y: 0.000000}
  m_LocalScale: {x: 1.000000, y: 1.000000}
  m_Parent: {fileID: 3}
--- !u!61 &56
BoxCollider:
  m_GameObject: {fileID: 3}
  m_Enable: 1
  m_Density: 0.000000
  m_IsTrigger: 0
  m_Offset: {x: 0.000000, y: 0.000000}
  m_Size: {x: 960.000000, y: 50.000000}
--- !u!1 &4
GameObject:
  m_Layer: Default Layer
  m_Name: TopWall
  m_TagString: Untagged
  m_IsActive: 1
--- !u!4 &57
Transform:
  m_GameObject: {fileID: 4}
  m_LocalEulerAngles: {v: 0.000000}
  m_LocalPosition: {x: 960.000000, y: 1080.000000}
  m_LocalScale: {x: 1.000000, y: 1.000000}
  m_Parent: {fileID: 4}
--- !u!61 &58
BoxCollider:
  m_GameObject: {fileID: 4}
  m_Enable: 1
  m_Density: 0.000000
  m_IsTrigger: 0
  m_Offset: {x: 0.000000, y: 0.000000}
  m_Size: {x: 960.000000, y: 28.000000}
--- !u!1 &5
GameObject:
  m_Layer: Default Layer
  m_Name: LeftWall
  m_TagString: Untagged
  m_IsActive: 1
--- !u!4 &59
Transform:
  m_GameObject: {fileID: 5}
  m_LocalEulerAngles: {v: 0.000000}
  m_LocalPosition: {x: 0.000000, y: 540.000000}
  m_LocalScale: {x: 1.000000, y: 1.000000}
  m_Parent: {fileID: 5}
--- !u!61 &60
BoxCollider:
  m_GameObject: {fileID: 5}
  m_Enable: 1
  m_Density: 0.000000
  m_IsTrigger: 0
  m_Offset: {x: 0.000000, y: 0.000000}
  m_Size: {x: 30.000000, y: 540.000000}
--- !u!1 &6
GameObject:
  m_Layer: Default Layer
  m_Name: RightWall
  m_TagString: Untagged
  m_IsActive: 1
--- !u!4 &61
Transform:
  m_GameObject: {fileID: 6}
  m_LocalEulerAngles: {v: 0.000000}
  m_LocalPosition: {x: 1920.000000, y: 540.000000}
  m_LocalScale: {x: 1.000000, y: 1.000000}
  m_Parent: {fileID: 6}
--- !u!61 &62
BoxCollider:
  m_GameObject: {fileID: 6}
  m_Enable: 1
  m_Density: 0.000000
  m_IsTrigger: 0
  m_Offset: {x: 0.000000, y: 0.000000}
  m_Size: {x: 30.000000, y: 540.000000}
--- !u!1 &7
GameObject:
  m_Layer: Default Layer
  m_Name: Player
  m_TagString: Untagged
  m_IsActive: 1
--- !u!4 &63
Transform:
  m_GameObject: {fileID: 7}
  m_LocalEulerAngles: {v: 180.000000}
  m_LocalPosition: {x: 1104.814331, y: 691.784668}
  m_LocalScale: {x: 0.077861, y: 0.077861}
  m_Parent: {fileID: 7}
--- !u!54 &64
Rigidbody:
  m_GameObject: {fileID: 7}
  m_Mass: 1.000000
  m_Drag: 0.800000
  m_AngularDrag: 0.800000
  m_GravityScale: 0.000000
  m_Simulated: 1
--- !u!212 &65
SpriteRenderer:
  m_GameObject: {fileID: 7}
  m_Enable: 1
  m_Sprite: {fileName: DuckBody}
  m_Flip: 0
  m_Color: {r: 1.000000, g: 1.000000, b: 1.000000, a: 1.000000}
  m_RenderType: {type: Stretch}
  m_Slice: {x: 0.000000, y: 0.000000, w: 0.000000, h: 0.000000}
  m_Order: 4
--- !u!58 &66
CircleCollider:
  m_GameObject: {fileID: 7}
  m_Enable: 1
  m_Density: 0.000000
  m_IsTrigger: 0
  m_Offset: {x: 0.000000, y: 0.000000}
  m_Radius: 31.000000
--- !u!1 &8
GameObject:
  m_Layer: 
  m_Name: DuckHead
  m_TagString: Untagged
  m_IsActive: 1
--- !u!4 &67
Transform:
  m_GameObject: {fileID: 8}
  m_LocalEulerAngles: {v: 0.000000}
  m_LocalPosition: {x: -10.108704, y: 0.000000}
  m_LocalScale: {x: 1.100000, y: 1.100000}
  m_Parent: {fileID: 7}
--- !u!212 &68
SpriteRenderer:
  m_GameObject: {fileID: 8}
  m_Enable: 1
  m_Sprite: {fileName: DuckHead}
  m_Flip: 0
  m_Color: {r: 1.000000, g: 1.000000, b: 1.000000, a: 1.000000}
  m_RenderType: {type: Stretch}
  m_Slice: {x: 0.000000, y: 0.000000, w: 0.000000, h: 0.000000}
  m_Order: 6
--- !u!58 &69
CircleCollider:
  m_GameObject: {fileID: 8}
  m_Enable: 1
  m_Density: 0.000000
  m_IsTrigger: 1
  m_Offset: {x: 0.000000, y: 0.000000}
  m_Radius: 47.000000
--- !u!1 &9
GameObject:
  m_Layer: 
  m_Name: Aim
  m_TagString: Untagged
  m_IsActive: 1
--- !u!4 &70
Transform:
  m_GameObject: {fileID: 9}
  m_LocalEulerAngles: {v: -57.947060}
  m_LocalPosition: {x: 1104.814331, y: 691.784668}
  m_LocalScale: {x: 2.518394, y: 2.518394}
  m_Parent: {fileID: 9}
--- !u!212 &71
SpriteRenderer:
  m_GameObject: {fileID: 9}
  m_Enable: 1
  m_Sprite: {fileName: Direction}
  m_Flip: 0
  m_Color: {r: 1.000000, g: 1.000000, b: 1.000000, a: 1.000000}
  m_RenderType: {type: Stretch}
  m_Slice: {x: 0.000000, y: 0.000000, w: 0.000000, h: 0.000000}
  m_Order: 0
--- !u!1 &10
GameObject:
  m_Layer: 
  m_Name: Quack
  m_TagString: Untagged
  m_IsActive: 0
--- !u!4 &72
Transform:
  m_GameObject: {fileID: 10}
  m_LocalEulerAngles: {v: 45.000000}
  m_LocalPosition: {x: 774.816772, y: 662.182373}
  m_LocalScale: {x: -0.020001, y: -0.020001}
  m_Parent: {fileID: 10}
--- !u!212 &73
SpriteRenderer:
  m_GameObject: {fileID: 10}
  m_Enable: 1
  m_Sprite: {fileName: quack}
  m_Flip: 0
  m_Color: {r: 1.000000, g: 1.000000, b: 1.000000, a: 1.000000}
  m_RenderType: {type: Stretch}
  m_Slice: {x: 0.000000, y: 0.000000, w: 0.000000, h: 0.000000}
  m_Order: 10
--- !u!1 &11
GameObject:
  m_Layer: 
  m_Name: Ball
  m_TagString: Untagged
  m_IsActive: 0
--- !u!4 &74
Transform:
  m_GameObject: {fileID: 11}
  m_LocalEulerAngles: {v: 0.000000}
  m_LocalPosition: {x: 108.938026, y: 985.633240}
  m_LocalScale: {x: 0.201920, y: 0.201920}
  m_Parent: {fileID: 11}
--- !u!54 &75
Rigidbody:
  m_GameObject: {fileID: 11}
  m_Mass: 1.000000
  m_Drag: 0.200000
  m_AngularDrag: 0.800000
  m_GravityScale: 0.000000
  m_Simulated: 1
--- !u!212 &76
SpriteRenderer:
  m_GameObject: {fileID: 11}
  m_Enable: 1
  m_Sprite: {fileName: armadillo}
  m_Flip: 0
  m_Color: {r: 1.000000, g: 1.000000, b: 1.000000, a: 1.000000}
  m_RenderType: {type: Stretch}
  m_Slice: {x: 0.000000, y: 0.000000, w: 0.000000, h: 0.000000}
  m_Order: 6
--- !u!58 &77
CircleCollider:
  m_GameObject: {fileID: 11}
  m_Enable: 1
  m_Density: 0.000000
  m_IsTrigger: 0
  m_Offset: {x: -1.000000, y: -3.000000}
  m_Radius: 47.000000
--- !u!1 &12
GameObject:
  m_Layer: 
  m_Name: Stamina 1
  m_TagString: Untagged
  m_IsActive: 1
--- !u!4 &78
Transform:
  m_GameObject: {fileID: 12}
  m_LocalEulerAngles: {v: 0.000000}
  m_LocalPosition: {x: 0.000000, y: 60.000000}
  m_LocalScale: {x: 0.150000, y: 0.150000}
  m_Parent: {fileID: 9}
--- !u!212 &79
SpriteRenderer:
  m_GameObject: {fileID: 12}
  m_Enable: 1
  m_Sprite: {fileName: whiteBall}
  m_Flip: 0
  m_Color: {r: 1.000000, g: 1.000000, b: 1.000000, a: 1.000000}
  m_RenderType: {type: Stretch}
  m_Slice: {x: 0.000000, y: 0.000000, w: 0.000000, h: 0.000000}
  m_Order: 5
--- !u!1 &13
GameObject:
  m_Layer: 
  m_Name: Stamina 2
  m_TagString: Untagged
  m_IsActive: 1
--- !u!4 &80
Transform:
  m_GameObject: {fileID: 13}
  m_LocalEulerAngles: {v: 0.000000}
  m_LocalPosition: {x: -45.000000, y: 40.000000}
  m_LocalScale: {x: 0.150000, y: 0.150000}
  m_Parent: {fileID: 9}
--- !u!212 &81
SpriteRenderer:
  m_GameObject: {fileID: 13}
  m_Enable: 1
  m_Sprite: {fileName: whiteBall}
  m_Flip: 0
  m_Color: {r: 1.000000, g: 1.000000, b: 1.000000, a: 1.000000}
  m_RenderType: {type: Stretch}
  m_Slice: {x: 0.000000, y: 0.000000, w: 0.000000, h: 0.000000}
  m_Order: 5
--- !u!1 &14
GameObject:
  m_Layer: 
  m_Name: Stamina 3
  m_TagString: Untagged
  m_IsActive: 0
--- !u!4 &82
Transform:
  m_GameObject: {fileID: 14}
  m_LocalEulerAngles: {v: 0.000000}
  m_LocalPosition: {x: 45.000000, y: 40.000000}
  m_LocalScale: {x: 0.150000, y: 0.150000}
  m_Parent: {fileID: 9}
--- !u!212 &83
SpriteRenderer:
  m_GameObject: {fileID: 14}
  m_Enable: 1
  m_Sprite: {fileName: whiteBall}
  m_Flip: 0
  m_Color: {r: 1.000000, g: 1.000000, b: 1.000000, a: 1.000000}
  m_RenderType: {type: Stretch}
  m_Slice: {x: 0.000000, y: 0.000000, w: 0.000000, h: 0.000000}
  m_Order: 5
--- !u!1 &15
GameObject:
  m_Layer: 
  m_Name: Scene Transition Controller
  m_TagString: Untagged
  m_IsActive: 1
--- !u!4 &84
Transform:
  m_GameObject: {fileID: 15}
  m_LocalEulerAngles: {v: 0.000000}
  m_LocalPosition: {x: 0.000000, y: 0.000000}
  m_LocalScale: {x: 1.000000, y: 1.000000}
  m_Parent: {fileID: 15}
--- !u!1 &16
GameObject:
  m_Layer: 
  m_Name: Transition Overlay
  m_TagString: Untagged
  m_IsActive: 1
--- !u!4 &85
Transform:
  m_GameObject: {fileID: 16}
  m_LocalEulerAngles: {v: 0.000000}
  m_LocalPosition: {x: 0.000000, y: 0.000000}
  m_LocalScale: {x: 32.582909, y: 18.527958}
  m_Parent: {fileID: 1}
--- !u!212 &86
SpriteRenderer:
  m_GameObject: {fileID: 16}
  m_Enable: 1
  m_Sprite: {fileName: whiteBox}
  m_Flip: 0
  m_Color: {r: 0.000000, g: 0.000000, b: 0.000000, a: 0.421386}
  m_RenderType: {type: Stretch}
  m_Slice: {x: 0.000000, y: 0.000000, w: 0.000000, h: 0.000000}
  m_Order: 30
--- !u!1 &17
GameObject:
  m_Layer: 
  m_Name: Checken Manager
  m_TagString: Untagged
  m_IsActive: 1
--- !u!4 &87
Transform:
  m_GameObject: {fileID: 17}
  m_LocalEulerAngles: {v: 0.000000}
  m_LocalPosition: {x: 960.000000, y: 540.000000}
  m_LocalScale: {x: 1.000000, y: 1.000000}
  m_Parent: {fileID: 17}
--- !u!1 &18
GameObject:
  m_Layer: 
  m_Name: Spawner Pos
  m_TagString: Untagged
  m_IsActive: 1
--- !u!4 &88
Transform:
  m_GameObject: {fileID: 18}
  m_LocalEulerAngles: {v: 0.000000}
  m_LocalPosition: {x: 0.000000, y: 0.000000}
  m_LocalScale: {x: 1.000000, y: 1.000000}
  m_Parent: {fileID: 18}
--- !u!1 &19
GameObject:
  m_Layer: 
  m_Name: Level Controller
  m_TagString: Untagged
  m_IsActive: 1
--- !u!4 &89
Transform:
  m_GameObject: {fileID: 19}
  m_LocalEulerAngles: {v: 0.000000}
  m_LocalPosition: {x: 0.000000, y: 0.000000}
  m_LocalScale: {x: 1.000000, y: 1.000000}
  m_Parent: {fileID: 19}
--- !u!1 &20
GameObject:
  m_Layer: solid_layer
  m_Name: Chicken Boss
  m_TagString: Untagged
  m_IsActive: 1
--- !u!4 &90
Transform:
  m_GameObject: {fileID: 20}
  m_LocalEulerAngles: {v: 256.565277}
  m_LocalPosition: {x: 960.000000, y: 85.547150}
  m_LocalScale: {x: 0.204141, y: 0.204141}
  m_Parent: {fileID: 20}
--- !u!212 &91
SpriteRenderer:
  m_GameObject: {fileID: 20}
  m_Enable: 1
  m_Sprite: {fileName: chick}
  m_Flip: 0
  m_Color: {r: 1.000000, g: 0.999994, b: 0.999990, a: 1.000000}
  m_RenderType: {type: Stretch}
  m_Slice: {x: 0.000000, y: 0.000000, w: 0.000000, h: 0.000000}
  m_Order: 6
--- !u!58 &92
CircleCollider:
  m_GameObject: {fileID: 20}
  m_Enable: 1
  m_Density: 0.000000
  m_IsTrigger: 0
  m_Offset: {x: 0.000000, y: 0.000000}
  m_Radius: 96.000000
--- !u!1 &21
GameObject:
  m_Layer: 
  m_Name: Shooting Holder
  m_TagString: Untagged
  m_IsActive: 1
--- !u!4 &93
Transform:
  m_GameObject: {fileID: 21}
  m_LocalEulerAngles: {v: 0.000000}
  m_LocalPosition: {x: -107.417252, y: 7.331771}
  m_LocalScale: {x: 1.000000, y: 1.000000}
  m_Parent: {fileID: 20}
--- !u!1 &22
GameObject:
  m_Layer: 
  m_Name: fence_0
  m_TagString: Untagged
  m_IsActive: 1
--- !u!4 &94
Transform:
  m_GameObject: {fileID: 22}
  m_LocalEulerAngles: {v: 180.000000}
  m_LocalPosition: {x: 961.290466, y: 1068.698730}
  m_LocalScale: {x: 1.040000, y: 1.000000}
  m_Parent: {fileID: 22}
--- !u!212 &95
SpriteRenderer:
  m_GameObject: {fileID: 22}
  m_Enable: 1
  m_Sprite: {fileName: Obstacles/fence_horizontal}
  m_Flip: 0
  m_Color: {r: 1.000000, g: 1.000000, b: 1.000000, a: 1.000000}
  m_RenderType: {type: Stretch}
  m_Slice: {x: 0.000000, y: 0.000000, w: 0.000000, h: 0.000000}
  m_Order: 0
--- !u!1 &23
GameObject:
  m_Layer: 
  m_Name: fence_1
  m_TagString: Untagged
  m_IsActive: 1
--- !u!4 &96
Transform:
  m_GameObject: {fileID: 23}
  m_LocalEulerAngles: {v: 180.000000}
  m_LocalPosition: {x: 960.341370, y: 38.728027}
  m_LocalScale: {x: 1.040000, y: 1.000000}
  m_Parent: {fileID: 23}
--- !u!212 &97
SpriteRenderer:
  m_GameObject: {fileID: 23}
  m_Enable: 1
  m_Sprite: {fileName: Obstacles/fence_horizontal}
  m_Flip: 0
  m_Color: {r: 1.000000, g: 1.000000, b: 1.000000, a: 1.000000}
  m_RenderType: {type: Stretch}
  m_Slice: {x: 0.000000, y: 0.000000, w: 0.000000, h: 0.000000}
  m_Order: 0
--- !u!1 &24
GameObject:
  m_Layer: 
  m_Name: fence_2
  m_TagString: Untagged
  m_IsActive: 1
--- !u!4 &98
Transform:
  m_GameObject: {fileID: 24}
  m_LocalEulerAngles: {v: 0.000000}
  m_LocalPosition: {x: 1909.680420, y: 551.033081}
  m_LocalScale: {x: 1.000000, y: 1.010000}
  m_Parent: {fileID: 24}
--- !u!212 &99
SpriteRenderer:
  m_GameObject: {fileID: 24}
  m_Enable: 1
  m_Sprite: {fileName: Obstacles/fence_verticle}
  m_Flip: 0
  m_Color: {r: 1.000000, g: 1.000000, b: 1.000000, a: 1.000000}
  m_RenderType: {type: Stretch}
  m_Slice: {x: 0.000000, y: 0.000000, w: 0.000000, h: 0.000000}
  m_Order: 0
--- !u!1 &25
GameObject:
  m_Layer: 
  m_Name: fence_3
  m_TagString: Untagged
  m_IsActive: 1
--- !u!4 &100
Transform:
  m_GameObject: {fileID: 25}
  m_LocalEulerAngles: {v: 180.000000}
  m_LocalPosition: {x: 15.676544, y: 552.548218}
  m_LocalScale: {x: 1.000000, y: 1.010000}
  m_Parent: {fileID: 25}
--- !u!212 &101
SpriteRenderer:
  m_GameObject: {fileID: 25}
  m_Enable: 1
  m_Sprite: {fileName: Obstacles/fence_verticle}
  m_Flip: 0
  m_Color: {r: 1.000000, g: 1.000000, b: 1.000000, a: 1.000000}
  m_RenderType: {type: Stretch}
  m_Slice: {x: 0.000000, y: 0.000000, w: 0.000000, h: 0.000000}
  m_Order: 0
--- !u!1 &26
GameObject:
  m_Layer: 
  m_Name: door_0
  m_TagString: Untagged
  m_IsActive: 1
--- !u!4 &102
Transform:
  m_GameObject: {fileID: 26}
  m_LocalEulerAngles: {v: 180.000000}
  m_LocalPosition: {x: 8.629486, y: 553.421326}
  m_LocalScale: {x: 1.000000, y: 1.000000}
  m_Parent: {fileID: 26}
--- !u!212 &103
SpriteRenderer:
  m_GameObject: {fileID: 26}
  m_Enable: 1
  m_Sprite: {fileName: Obstacles/fence_gate}
  m_Flip: 0
  m_Color: {r: 1.000000, g: 1.000000, b: 1.000000, a: 1.000000}
  m_RenderType: {type: Stretch}
  m_Slice: {x: 0.000000, y: 0.000000, w: 0.000000, h: 0.000000}
  m_Order: 0
--- !u!1 &27
GameObject:
  m_Layer: 
  m_Name: door_0
  m_TagString: Untagged
  m_IsActive: 1
--- !u!4 &104
Transform:
  m_GameObject: {fileID: 27}
  m_LocalEulerAngles: {v: 0.000000}
  m_LocalPosition: {x: 1916.823120, y: 549.875000}
  m_LocalScale: {x: 1.000000, y: 1.000000}
  m_Parent: {fileID: 27}
--- !u!212 &105
SpriteRenderer:
  m_GameObject: {fileID: 27}
  m_Enable: 1
  m_Sprite: {fileName: Obstacles/fence_gate}
  m_Flip: 0
  m_Color: {r: 1.000000, g: 1.000000, b: 1.000000, a: 1.000000}
  m_RenderType: {type: Stretch}
  m_Slice: {x: 0.000000, y: 0.000000, w: 0.000000, h: 0.000000}
  m_Order: 0
--- !u!1 &28
GameObject:
  m_Layer: solid_layer
  m_Name: fert_0
  m_TagString: Untagged
  m_IsActive: 1
--- !u!4 &106
Transform:
  m_GameObject: {fileID: 28}
  m_LocalEulerAngles: {v: 270.000000}
  m_LocalPosition: {x: 1481.009766, y: 110.000000}
  m_LocalScale: {x: 0.200000, y: 0.200000}
  m_Parent: {fileID: 28}
--- !u!212 &107
SpriteRenderer:
  m_GameObject: {fileID: 28}
  m_Enable: 1
  m_Sprite: {fileName: Obstacles/fertilizer_group}
  m_Flip: 0
  m_Color: {r: 1.000000, g: 1.000000, b: 1.000000, a: 1.000000}
  m_RenderType: {type: Stretch}
  m_Slice: {x: 0.000000, y: 0.000000, w: 0.000000, h: 0.000000}
  m_Order: 0
--- !u!61 &108
BoxCollider:
  m_GameObject: {fileID: 28}
  m_Enable: 1
  m_Density: 0.000000
  m_IsTrigger: 0
  m_Offset: {x: 0.000000, y: 0.000000}
  m_Size: {x: 250.000000, y: 650.000000}
--- !u!1 &29
GameObject:
  m_Layer: solid_layer
  m_Name: fert_1
  m_TagString: Untagged
  m_IsActive: 1
--- !u!4 &109
Transform:
  m_GameObject: {fileID: 29}
  m_LocalEulerAngles: {v: 270.000000}
  m_LocalPosition: {x: 466.415894, y: 110.000000}
  m_LocalScale: {x: 0.200000, y: 0.200000}
  m_Parent: {fileID: 29}
--- !u!212 &110
SpriteRenderer:
  m_GameObject: {fileID: 29}
  m_Enable: 1
  m_Sprite: {fileName: Obstacles/fertilizer_group}
  m_Flip: 0
  m_Color: {r: 1.000000, g: 1.000000, b: 1.000000, a: 1.000000}
  m_RenderType: {type: Stretch}
  m_Slice: {x: 0.000000, y: 0.000000, w: 0.000000, h: 0.000000}
  m_Order: 0
--- !u!61 &111
BoxCollider:
  m_GameObject: {fileID: 29}
  m_Enable: 1
  m_Density: 0.000000
  m_IsTrigger: 0
  m_Offset: {x: 0.000000, y: 0.000000}
  m_Size: {x: 250.000000, y: 650.000000}
--- !u!1 &30
GameObject:
  m_Layer: solid_layer
  m_Name: fert_2
  m_TagString: Untagged
  m_IsActive: 1
--- !u!4 &112
Transform:
  m_GameObject: {fileID: 30}
  m_LocalEulerAngles: {v: 270.000000}
  m_LocalPosition: {x: 1748.259033, y: 110.000000}
  m_LocalScale: {x: 0.200000, y: 0.200000}
  m_Parent: {fileID: 30}
--- !u!212 &113
SpriteRenderer:
  m_GameObject: {fileID: 30}
  m_Enable: 1
  m_Sprite: {fileName: Obstacles/fertilizer_group}
  m_Flip: 0
  m_Color: {r: 1.000000, g: 1.000000, b: 1.000000, a: 1.000000}
  m_RenderType: {type: Stretch}
  m_Slice: {x: 0.000000, y: 0.000000, w: 0.000000, h: 0.000000}
  m_Order: 0
--- !u!61 &114
BoxCollider:
  m_GameObject: {fileID: 30}
  m_Enable: 1
  m_Density: 0.000000
  m_IsTrigger: 0
  m_Offset: {x: 0.000000, y: 0.000000}
  m_Size: {x: 250.000000, y: 650.000000}
--- !u!1 &31
GameObject:
  m_Layer: solid_layer
  m_Name: fert_3
  m_TagString: Untagged
  m_IsActive: 1
--- !u!4 &115
Transform:
  m_GameObject: {fileID: 31}
  m_LocalEulerAngles: {v: 270.000000}
  m_LocalPosition: {x: 183.276886, y: 110.000000}
  m_LocalScale: {x: 0.200000, y: 0.200000}
  m_Parent: {fileID: 31}
--- !u!212 &116
SpriteRenderer:
  m_GameObject: {fileID: 31}
  m_Enable: 1
  m_Sprite: {fileName: Obstacles/fertilizer_group}
  m_Flip: 0
  m_Color: {r: 1.000000, g: 1.000000, b: 1.000000, a: 1.000000}
  m_RenderType: {type: Stretch}
  m_Slice: {x: 0.000000, y: 0.000000, w: 0.000000, h: 0.000000}
  m_Order: 0
--- !u!61 &117
BoxCollider:
  m_GameObject: {fileID: 31}
  m_Enable: 1
  m_Density: 0.000000
  m_IsTrigger: 0
  m_Offset: {x: 0.000000, y: 0.000000}
  m_Size: {x: 250.000000, y: 650.000000}
--- !u!1 &32
GameObject:
  m_Layer: solid_layer
  m_Name: carrots_0
  m_TagString: Untagged
  m_IsActive: 1
--- !u!4 &118
Transform:
  m_GameObject: {fileID: 32}
  m_LocalEulerAngles: {v: 90.000000}
  m_LocalPosition: {x: 1253.664673, y: 108.000000}
  m_LocalScale: {x: 0.200000, y: 0.250000}
  m_Parent: {fileID: 32}
--- !u!212 &119
SpriteRenderer:
  m_GameObject: {fileID: 32}
  m_Enable: 1
  m_Sprite: {fileName: Obstacles/carrots}
  m_Flip: 0
  m_Color: {r: 1.000000, g: 1.000000, b: 1.000000, a: 1.000000}
  m_RenderType: {type: Stretch}
  m_Slice: {x: 0.000000, y: 0.000000, w: 0.000000, h: 0.000000}
  m_Order: 0
--- !u!61 &120
BoxCollider:
  m_GameObject: {fileID: 32}
  m_Enable: 1
  m_Density: 0.000000
  m_IsTrigger: 0
  m_Offset: {x: 0.000000, y: 6.000000}
  m_Size: {x: 250.000000, y: 350.000000}
--- !u!1 &33
GameObject:
  m_Layer: solid_layer
  m_Name: carrots_1
  m_TagString: Untagged
  m_IsActive: 1
--- !u!4 &121
Transform:
  m_GameObject: {fileID: 33}
  m_LocalEulerAngles: {v: 90.000000}
  m_LocalPosition: {x: 707.495300, y: 108.000000}
  m_LocalScale: {x: 0.200000, y: 0.250000}
  m_Parent: {fileID: 33}
--- !u!212 &122
SpriteRenderer:
  m_GameObject: {fileID: 33}
  m_Enable: 1
  m_Sprite: {fileName: Obstacles/carrots}
  m_Flip: 0
  m_Color: {r: 1.000000, g: 1.000000, b: 1.000000, a: 1.000000}
  m_RenderType: {type: Stretch}
  m_Slice: {x: 0.000000, y: 0.000000, w: 0.000000, h: 0.000000}
  m_Order: 0
--- !u!61 &123
BoxCollider:
  m_GameObject: {fileID: 33}
  m_Enable: 1
  m_Density: 0.000000
  m_IsTrigger: 0
  m_Offset: {x: 0.000000, y: 6.000000}
  m_Size: {x: 250.000000, y: 350.000000}
--- !u!1 &34
GameObject:
  m_Layer: solid_layer
  m_Name: cart_0
  m_TagString: Untagged
  m_IsActive: 1
--- !u!4 &124
Transform:
  m_GameObject: {fileID: 34}
  m_LocalEulerAngles: {v: -92.387970}
  m_LocalPosition: {x: 1265.706177, y: 547.846619}
  m_LocalScale: {x: 0.150000, y: 0.150000}
  m_Parent: {fileID: 34}
--- !u!212 &125
SpriteRenderer:
  m_GameObject: {fileID: 34}
  m_Enable: 1
  m_Sprite: {fileName: Obstacles/cart_blue}
  m_Flip: 0
  m_Color: {r: 1.000000, g: 1.000000, b: 1.000000, a: 1.000000}
  m_RenderType: {type: Stretch}
  m_Slice: {x: 0.000000, y: 0.000000, w: 0.000000, h: 0.000000}
  m_Order: 0
--- !u!61 &126
BoxCollider:
  m_GameObject: {fileID: 34}
  m_Enable: 1
  m_Density: 0.000000
  m_IsTrigger: 0
  m_Offset: {x: 0.000000, y: 8.000000}
  m_Size: {x: 240.000000, y: 648.000000}
--- !u!1 &35
GameObject:
  m_Layer: solid_layer
  m_Name: cart_1
  m_TagString: Untagged
  m_IsActive: 1
--- !u!4 &127
Transform:
  m_GameObject: {fileID: 35}
  m_LocalEulerAngles: {v: -56.691116}
  m_LocalPosition: {x: 353.141144, y: 641.793030}
  m_LocalScale: {x: 0.150000, y: 0.150000}
  m_Parent: {fileID: 35}
--- !u!212 &128
SpriteRenderer:
  m_GameObject: {fileID: 35}
  m_Enable: 1
  m_Sprite: {fileName: Obstacles/cart}
  m_Flip: 0
  m_Color: {r: 1.000000, g: 1.000000, b: 1.000000, a: 1.000000}
  m_RenderType: {type: Stretch}
  m_Slice: {x: 0.000000, y: 0.000000, w: 0.000000, h: 0.000000}
  m_Order: 0
--- !u!61 &129
BoxCollider:
  m_GameObject: {fileID: 35}
  m_Enable: 1
  m_Density: 0.000000
  m_IsTrigger: 0
  m_Offset: {x: 0.000000, y: 0.000000}
  m_Size: {x: 240.000000, y: 648.000000}
--- !u!1 &36
GameObject:
  m_Layer: solid_layer
  m_Name: stump_0
  m_TagString: Untagged
  m_IsActive: 1
--- !u!4 &130
Transform:
  m_GameObject: {fileID: 36}
  m_LocalEulerAngles: {v: 0.000000}
  m_LocalPosition: {x: 1650.040527, y: 670.385986}
  m_LocalScale: {x: 0.160000, y: 0.160000}
  m_Parent: {fileID: 36}
--- !u!212 &131
SpriteRenderer:
  m_GameObject: {fileID: 36}
  m_Enable: 1
  m_Sprite: {fileName: Obstacles/tree_stump}
  m_Flip: 0
  m_Color: {r: 1.000000, g: 1.000000, b: 1.000000, a: 1.000000}
  m_RenderType: {type: Stretch}
  m_Slice: {x: 0.000000, y: 0.000000, w: 0.000000, h: 0.000000}
  m_Order: 0
--- !u!58 &132
CircleCollider:
  m_GameObject: {fileID: 36}
  m_Enable: 1
  m_Density: 0.000000
  m_IsTrigger: 0
  m_Offset: {x: 0.000000, y: 0.000000}
  m_Radius: 55.000000
--- !u!1 &37
GameObject:
  m_Layer: solid_layer
  m_Name: stump_1
  m_TagString: Untagged
  m_IsActive: 1
--- !u!4 &133
Transform:
  m_GameObject: {fileID: 37}
  m_LocalEulerAngles: {v: -24.754419}
  m_LocalPosition: {x: 604.844238, y: 381.934265}
  m_LocalScale: {x: 0.160000, y: 0.160000}
  m_Parent: {fileID: 37}
--- !u!212 &134
SpriteRenderer:
  m_GameObject: {fileID: 37}
  m_Enable: 1
  m_Sprite: {fileName: Obstacles/tree_stump}
  m_Flip: 0
  m_Color: {r: 1.000000, g: 1.000000, b: 1.000000, a: 1.000000}
  m_RenderType: {type: Stretch}
  m_Slice: {x: 0.000000, y: 0.000000, w: 0.000000, h: 0.000000}
  m_Order: 0
--- !u!58 &135
CircleCollider:
  m_GameObject: {fileID: 37}
  m_Enable: 1
  m_Density: 0.000000
  m_IsTrigger: 0
  m_Offset: {x: 0.000000, y: 0.000000}
  m_Radius: 55.000000
--- !u!1 &38
GameObject:
  m_Layer: solid_layer
  m_Name: log_0
  m_TagString: Untagged
  m_IsActive: 1
--- !u!4 &136
Transform:
  m_GameObject: {fileID: 38}
  m_LocalEulerAngles: {v: -294.003113}
  m_LocalPosition: {x: 791.569153, y: 785.445984}
  m_LocalScale: {x: 0.150000, y: 0.150000}
  m_Parent: {fileID: 38}
--- !u!212 &137
SpriteRenderer:
  m_GameObject: {fileID: 38}
  m_Enable: 1
  m_Sprite: {fileName: Obstacles/log3}
  m_Flip: 0
  m_Color: {r: 1.000000, g: 1.000000, b: 1.000000, a: 1.000000}
  m_RenderType: {type: Stretch}
  m_Slice: {x: 0.000000, y: 0.000000, w: 0.000000, h: 0.000000}
  m_Order: 0
--- !u!61 &138
BoxCollider:
  m_GameObject: {fileID: 38}
  m_Enable: 1
  m_Density: 0.000000
  m_IsTrigger: 0
  m_Offset: {x: 0.000000, y: 0.000000}
  m_Size: {x: 100.000000, y: 700.000000}
--- !u!1 &39
GameObject:
  m_Layer: solid_layer
  m_Name: log_1
  m_TagString: Untagged
  m_IsActive: 1
--- !u!4 &139
Transform:
  m_GameObject: {fileID: 39}
  m_LocalEulerAngles: {v: -230.234406}
  m_LocalPosition: {x: 1517.753174, y: 247.156464}
  m_LocalScale: {x: 0.150000, y: 0.150000}
  m_Parent: {fileID: 39}
--- !u!212 &140
SpriteRenderer:
  m_GameObject: {fileID: 39}
  m_Enable: 1
  m_Sprite: {fileName: Obstacles/log3}
  m_Flip: 0
  m_Color: {r: 1.000000, g: 1.000000, b: 1.000000, a: 1.000000}
  m_RenderType: {type: Stretch}
  m_Slice: {x: 0.000000, y: 0.000000, w: 0.000000, h: 0.000000}
  m_Order: 0
--- !u!61 &141
BoxCollider:
  m_GameObject: {fileID: 39}
  m_Enable: 1
  m_Density: 0.000000
  m_IsTrigger: 0
  m_Offset: {x: 0.000000, y: 0.000000}
  m_Size: {x: 100.000000, y: 700.000000}
--- !u!1 &40
GameObject:
  m_Layer: 
  m_Name: NextRoomArrow
  m_TagString: Untagged
  m_IsActive: 0
--- !u!4 &142
Transform:
  m_GameObject: {fileID: 40}
  m_LocalEulerAngles: {v: 0.000000}
  m_LocalPosition: {x: 960.786865, y: 99.966660}
  m_LocalScale: {x: 0.384856, y: 0.384856}
  m_Parent: {fileID: 40}
--- !u!212 &143
SpriteRenderer:
  m_GameObject: {fileID: 40}
  m_Enable: 1
  m_Sprite: {fileName: whiteTriangle}
  m_Flip: 0
  m_Color: {r: 1.000000, g: 1.000000, b: 1.000000, a: 1.000000}
  m_RenderType: {type: Stretch}
  m_Slice: {x: 0.000000, y: 0.000000, w: 0.000000, h: 0.000000}
  m_Order: 10
--- !u!61 &144
BoxCollider:
  m_GameObject: {fileID: 40}
  m_Enable: 1
  m_Density: 0.000000
  m_IsTrigger: 1
  m_Offset: {x: 0.000000, y: 0.000000}
  m_Size: {x: 97.000000, y: 120.000000}
