%YAML 1.1
%TAG !u! tag:ducklingsengine:
--- !u!1 &1
GameObject:
  m_Layer: Empty Layer
  m_Name: Main Camera
  m_TagString: Untagged
  m_IsActive: 1
--- !u!4 &97
Transform:
  m_GameObject: {fileID: 1}
  m_LocalEulerAngles: {v: 0.000000}
  m_LocalPosition: {x: 960.000000, y: 540.000000}
  m_LocalScale: {x: 1.000000, y: 1.000000}
  m_Parent: {fileID: 1}
--- !u!20 &98
Camera:
  m_GameObject: {fileID: 1}
  m_Enable: 1
  m_Rect: {x: 1920.000000, y: 1080.000000}
  m_BackgroundColor: {r: 1.000000, g: 1.000000, b: 1.000000, a: 1.000000}
--- !u!1 &2
GameObject:
  m_Layer: 
  m_Name: Background
  m_TagString: Untagged
  m_IsActive: 1
--- !u!4 &99
Transform:
  m_GameObject: {fileID: 2}
  m_LocalEulerAngles: {v: 0.000000}
  m_LocalPosition: {x: 960.000000, y: 540.000000}
  m_LocalScale: {x: 1.000000, y: 1.000000}
  m_Parent: {fileID: 2}
--- !u!212 &100
SpriteRenderer:
  m_GameObject: {fileID: 2}
  m_Enable: 1
  m_Sprite: {fileName: Grounds/Ground_Green}
  m_Flip: 0
  m_Color: {r: 1.000000, g: 1.000000, b: 1.000000, a: 1.000000}
  m_RenderType: {type: Stretch}
  m_Slice: {x: 0.000000, y: 0.000000, w: 0.000000, h: 0.000000}
  m_Order: -1
--- !u!1 &3
GameObject:
  m_Layer: 
  m_Name: TopWall
  m_TagString: Untagged
  m_IsActive: 1
--- !u!4 &101
Transform:
  m_GameObject: {fileID: 3}
  m_LocalEulerAngles: {v: 0.000000}
  m_LocalPosition: {x: 1920.000000, y: 0.000000}
  m_LocalScale: {x: 1.000000, y: 1.000000}
  m_Parent: {fileID: 3}
--- !u!61 &102
BoxCollider:
  m_GameObject: {fileID: 3}
  m_Enable: 1
  m_Density: 0.000000
  m_IsTrigger: 0
  m_Offset: {x: 0.000000, y: 0.000000}
  m_Size: {x: 1935.000000, y: 50.000000}
--- !u!1 &4
GameObject:
  m_Layer: 
  m_Name: TopWall
  m_TagString: Untagged
  m_IsActive: 1
--- !u!4 &103
Transform:
  m_GameObject: {fileID: 4}
  m_LocalEulerAngles: {v: 0.000000}
  m_LocalPosition: {x: 1920.000000, y: 2153.443359}
  m_LocalScale: {x: 1.000000, y: 1.000000}
  m_Parent: {fileID: 4}
--- !u!61 &104
BoxCollider:
  m_GameObject: {fileID: 4}
  m_Enable: 1
  m_Density: 0.000000
  m_IsTrigger: 0
  m_Offset: {x: 0.000000, y: 0.000000}
  m_Size: {x: 1957.000000, y: 28.000000}
--- !u!1 &5
GameObject:
  m_Layer: 
  m_Name: LeftWall
  m_TagString: Untagged
  m_IsActive: 1
--- !u!4 &105
Transform:
  m_GameObject: {fileID: 5}
  m_LocalEulerAngles: {v: 0.000000}
  m_LocalPosition: {x: 0.000000, y: 1080.000000}
  m_LocalScale: {x: 1.000000, y: 1.000000}
  m_Parent: {fileID: 5}
--- !u!61 &106
BoxCollider:
  m_GameObject: {fileID: 5}
  m_Enable: 1
  m_Density: 0.000000
  m_IsTrigger: 0
  m_Offset: {x: 0.000000, y: 0.000000}
  m_Size: {x: 30.000000, y: 1118.000000}
--- !u!1 &6
GameObject:
  m_Layer: 
  m_Name: RightWall
  m_TagString: Untagged
  m_IsActive: 1
--- !u!4 &107
Transform:
  m_GameObject: {fileID: 6}
  m_LocalEulerAngles: {v: 0.000000}
  m_LocalPosition: {x: 3563.020264, y: 1078.936646}
  m_LocalScale: {x: 1.000000, y: 1.000000}
  m_Parent: {fileID: 6}
--- !u!61 &108
BoxCollider:
  m_GameObject: {fileID: 6}
  m_Enable: 1
  m_Density: 0.000000
  m_IsTrigger: 0
  m_Offset: {x: 0.000000, y: 0.000000}
  m_Size: {x: 30.000000, y: 1107.000000}
--- !u!1 &7
GameObject:
  m_Layer: solid_layer
  m_Name: Player
  m_TagString: Player
  m_IsActive: 1
--- !u!4 &109
Transform:
  m_GameObject: {fileID: 7}
  m_LocalEulerAngles: {v: 180.000000}
  m_LocalPosition: {x: 1104.814331, y: 691.784668}
  m_LocalScale: {x: 0.657547, y: 0.657547}
  m_Parent: {fileID: 7}
--- !u!54 &110
Rigidbody:
  m_GameObject: {fileID: 7}
  m_Mass: 1.000000
  m_Drag: 0.800000
  m_AngularDrag: 0.800000
  m_GravityScale: 0.000000
  m_Simulated: 1
--- !u!212 &111
SpriteRenderer:
  m_GameObject: {fileID: 7}
  m_Enable: 1
  m_Sprite: {fileName: Ducks/DuckSpriteWalk}
  m_Flip: 0
  m_Color: {r: 1.000000, g: 1.000000, b: 1.000000, a: 1.000000}
  m_RenderType: {type: Stretch}
  m_Slice: {x: 0.000000, y: 0.000000, w: 0.000000, h: 0.000000}
  m_Order: 4
--- !u!58 &112
CircleCollider:
  m_GameObject: {fileID: 7}
  m_Enable: 1
  m_Density: 0.000000
  m_IsTrigger: 0
  m_Offset: {x: -23.000000, y: 2.000000}
  m_Radius: 37.000000
--- !u!95 &113
Animator:
  m_GameObject: {fileID: 7}
  m_Enable: 
--- !u!1 &8
GameObject:
  m_Layer: 
  m_Name: DuckHead
  m_TagString: Untagged
  m_IsActive: 1
--- !u!4 &114
Transform:
  m_GameObject: {fileID: 8}
  m_LocalEulerAngles: {v: 0.000000}
  m_LocalPosition: {x: -17.053589, y: -5.165161}
  m_LocalScale: {x: 0.869058, y: 0.869058}
  m_Parent: {fileID: 7}
--- !u!212 &115
SpriteRenderer:
  m_GameObject: {fileID: 8}
  m_Enable: 1
  m_Sprite: {fileName: Ducks/DuckSpriteHead}
  m_Flip: 0
  m_Color: {r: 1.000000, g: 1.000000, b: 1.000000, a: 1.000000}
  m_RenderType: {type: Stretch}
  m_Slice: {x: 0.000000, y: 0.000000, w: 0.000000, h: 0.000000}
  m_Order: 5
--- !u!58 &116
CircleCollider:
  m_GameObject: {fileID: 8}
  m_Enable: 1
  m_Density: 0.000000
  m_IsTrigger: 1
  m_Offset: {x: 0.000000, y: 0.000000}
  m_Radius: 47.000000
--- !u!1 &9
GameObject:
  m_Layer: 
  m_Name: Aim
  m_TagString: Untagged
  m_IsActive: 1
--- !u!4 &117
Transform:
  m_GameObject: {fileID: 9}
  m_LocalEulerAngles: {v: -49.240089}
  m_LocalPosition: {x: 1104.814331, y: 691.784668}
  m_LocalScale: {x: 2.518394, y: 2.518394}
  m_Parent: {fileID: 9}
--- !u!212 &118
SpriteRenderer:
  m_GameObject: {fileID: 9}
  m_Enable: 1
  m_Sprite: {fileName: Direction}
  m_Flip: 0
  m_Color: {r: 1.000000, g: 1.000000, b: 1.000000, a: 1.000000}
  m_RenderType: {type: Stretch}
  m_Slice: {x: 0.000000, y: 0.000000, w: 0.000000, h: 0.000000}
  m_Order: 0
--- !u!1 &10
GameObject:
  m_Layer: 
  m_Name: Quack
  m_TagString: Untagged
  m_IsActive: 0
--- !u!4 &119
Transform:
  m_GameObject: {fileID: 10}
  m_LocalEulerAngles: {v: 45.000000}
  m_LocalPosition: {x: 774.816772, y: 662.182373}
  m_LocalScale: {x: -0.020001, y: -0.020001}
  m_Parent: {fileID: 10}
--- !u!212 &120
SpriteRenderer:
  m_GameObject: {fileID: 10}
  m_Enable: 1
  m_Sprite: {fileName: quack}
  m_Flip: 0
  m_Color: {r: 1.000000, g: 1.000000, b: 1.000000, a: 1.000000}
  m_RenderType: {type: Stretch}
  m_Slice: {x: 0.000000, y: 0.000000, w: 0.000000, h: 0.000000}
  m_Order: 10
--- !u!1 &11
GameObject:
  m_Layer: solid_layer
  m_Name: Ball
  m_TagString: Untagged
  m_IsActive: 0
--- !u!4 &121
Transform:
  m_GameObject: {fileID: 11}
  m_LocalEulerAngles: {v: -54.472092}
  m_LocalPosition: {x: 778.986877, y: 569.869507}
  m_LocalScale: {x: 0.420822, y: 0.420822}
  m_Parent: {fileID: 11}
--- !u!54 &122
Rigidbody:
  m_GameObject: {fileID: 11}
  m_Mass: 1.000000
  m_Drag: 0.200000
  m_AngularDrag: 0.800000
  m_GravityScale: 0.000000
  m_Simulated: 1
--- !u!212 &123
SpriteRenderer:
  m_GameObject: {fileID: 11}
  m_Enable: 1
  m_Sprite: {fileName: Armadillos/ArmadilloSpriteRoll}
  m_Flip: 0
  m_Color: {r: 1.000000, g: 1.000000, b: 1.000000, a: 1.000000}
  m_RenderType: {type: Stretch}
  m_Slice: {x: 0.000000, y: 0.000000, w: 0.000000, h: 0.000000}
  m_Order: 5
--- !u!58 &124
CircleCollider:
  m_GameObject: {fileID: 11}
  m_Enable: 1
  m_Density: 0.000000
  m_IsTrigger: 0
  m_Offset: {x: -1.000000, y: -3.000000}
  m_Radius: 54.000000
--- !u!95 &125
Animator:
  m_GameObject: {fileID: 11}
  m_Enable: 
--- !u!1 &12
GameObject:
  m_Layer: 
  m_Name: Stamina 1
  m_TagString: Untagged
  m_IsActive: 0
--- !u!4 &126
Transform:
  m_GameObject: {fileID: 12}
  m_LocalEulerAngles: {v: 0.000000}
  m_LocalPosition: {x: 0.000000, y: 60.000000}
  m_LocalScale: {x: 0.150000, y: 0.150000}
  m_Parent: {fileID: 9}
--- !u!212 &127
SpriteRenderer:
  m_GameObject: {fileID: 12}
  m_Enable: 1
  m_Sprite: {fileName: whiteBall}
  m_Flip: 0
  m_Color: {r: 1.000000, g: 1.000000, b: 1.000000, a: 1.000000}
  m_RenderType: {type: Stretch}
  m_Slice: {x: 0.000000, y: 0.000000, w: 0.000000, h: 0.000000}
  m_Order: 5
--- !u!1 &13
GameObject:
  m_Layer: 
  m_Name: Stamina 2
  m_TagString: Untagged
  m_IsActive: 0
--- !u!4 &128
Transform:
  m_GameObject: {fileID: 13}
  m_LocalEulerAngles: {v: 0.000000}
  m_LocalPosition: {x: -45.000000, y: 40.000000}
  m_LocalScale: {x: 0.150000, y: 0.150000}
  m_Parent: {fileID: 9}
--- !u!212 &129
SpriteRenderer:
  m_GameObject: {fileID: 13}
  m_Enable: 1
  m_Sprite: {fileName: whiteBall}
  m_Flip: 0
  m_Color: {r: 1.000000, g: 1.000000, b: 1.000000, a: 1.000000}
  m_RenderType: {type: Stretch}
  m_Slice: {x: 0.000000, y: 0.000000, w: 0.000000, h: 0.000000}
  m_Order: 5
--- !u!1 &14
GameObject:
  m_Layer: 
  m_Name: Stamina 3
  m_TagString: Untagged
  m_IsActive: 0
--- !u!4 &130
Transform:
  m_GameObject: {fileID: 14}
  m_LocalEulerAngles: {v: 0.000000}
  m_LocalPosition: {x: 45.000000, y: 40.000000}
  m_LocalScale: {x: 0.150000, y: 0.150000}
  m_Parent: {fileID: 9}
--- !u!212 &131
SpriteRenderer:
  m_GameObject: {fileID: 14}
  m_Enable: 1
  m_Sprite: {fileName: whiteBall}
  m_Flip: 0
  m_Color: {r: 1.000000, g: 1.000000, b: 1.000000, a: 1.000000}
  m_RenderType: {type: Stretch}
  m_Slice: {x: 0.000000, y: 0.000000, w: 0.000000, h: 0.000000}
  m_Order: 5
--- !u!1 &15
GameObject:
  m_Layer: 
  m_Name: Scene Transition Controller
  m_TagString: Untagged
  m_IsActive: 1
--- !u!4 &132
Transform:
  m_GameObject: {fileID: 15}
  m_LocalEulerAngles: {v: 0.000000}
  m_LocalPosition: {x: 0.000000, y: 0.000000}
  m_LocalScale: {x: 1.000000, y: 1.000000}
  m_Parent: {fileID: 15}
--- !u!1 &16
GameObject:
  m_Layer: 
  m_Name: Transition Overlay
  m_TagString: Untagged
  m_IsActive: 1
--- !u!4 &133
Transform:
  m_GameObject: {fileID: 16}
  m_LocalEulerAngles: {v: 0.000000}
  m_LocalPosition: {x: 0.000000, y: 0.000000}
  m_LocalScale: {x: 32.582909, y: 18.527958}
  m_Parent: {fileID: 1}
--- !u!212 &134
SpriteRenderer:
  m_GameObject: {fileID: 16}
  m_Enable: 1
  m_Sprite: {fileName: whiteBox}
  m_Flip: 0
  m_Color: {r: 0.000000, g: 0.000000, b: 0.000000, a: 1.000000}
  m_RenderType: {type: Stretch}
  m_Slice: {x: 0.000000, y: 0.000000, w: 0.000000, h: 0.000000}
  m_Order: 30
--- !u!1 &17
GameObject:
  m_Layer: 
  m_Name: Checken Manager
  m_TagString: Untagged
  m_IsActive: 1
--- !u!4 &135
Transform:
  m_GameObject: {fileID: 17}
  m_LocalEulerAngles: {v: 0.000000}
  m_LocalPosition: {x: 960.000000, y: 540.000000}
  m_LocalScale: {x: 1.000000, y: 1.000000}
  m_Parent: {fileID: 17}
--- !u!1 &18
GameObject:
  m_Layer: 
  m_Name: Spawner Pos
  m_TagString: Untagged
  m_IsActive: 1
--- !u!4 &136
Transform:
  m_GameObject: {fileID: 18}
  m_LocalEulerAngles: {v: 0.000000}
  m_LocalPosition: {x: 0.000000, y: 0.000000}
  m_LocalScale: {x: 1.000000, y: 1.000000}
  m_Parent: {fileID: 18}
--- !u!1 &19
GameObject:
  m_Layer: solid_layer
  m_Name: haybale_00
  m_TagString: Obstacle
  m_IsActive: 1
--- !u!4 &137
Transform:
  m_GameObject: {fileID: 19}
  m_LocalEulerAngles: {v: 0.000000}
  m_LocalPosition: {x: 1790.925293, y: 1061.701782}
  m_LocalScale: {x: 0.254501, y: 0.172467}
  m_Parent: {fileID: 19}
--- !u!212 &138
SpriteRenderer:
  m_GameObject: {fileID: 19}
  m_Enable: 1
  m_Sprite: {fileName: Obstacles/haybale1}
  m_Flip: 0
  m_Color: {r: 1.000000, g: 1.000000, b: 1.000000, a: 1.000000}
  m_RenderType: {type: Stretch}
  m_Slice: {x: 0.000000, y: 0.000000, w: 0.000000, h: 0.000000}
  m_Order: 1
--- !u!61 &139
BoxCollider:
  m_GameObject: {fileID: 19}
  m_Enable: 1
  m_Density: 0.000000
  m_IsTrigger: 0
  m_Offset: {x: 0.000000, y: 0.000000}
  m_Size: {x: 367.000000, y: 355.000000}
--- !u!1 &20
GameObject:
  m_Layer: solid_layer
  m_Name: haybale_type1_1
  m_TagString: Obstacle
  m_IsActive: 1
--- !u!4 &140
Transform:
  m_GameObject: {fileID: 20}
  m_LocalEulerAngles: {v: 0.000000}
  m_LocalPosition: {x: 2908.101074, y: 494.735229}
  m_LocalScale: {x: 0.140000, y: 0.140000}
  m_Parent: {fileID: 20}
--- !u!212 &141
SpriteRenderer:
  m_GameObject: {fileID: 20}
  m_Enable: 1
  m_Sprite: {fileName: Obstacles/haybale1}
  m_Flip: 0
  m_Color: {r: 1.000000, g: 1.000000, b: 1.000000, a: 1.000000}
  m_RenderType: {type: Stretch}
  m_Slice: {x: 0.000000, y: 0.000000, w: 0.000000, h: 0.000000}
  m_Order: 1
--- !u!61 &142
BoxCollider:
  m_GameObject: {fileID: 20}
  m_Enable: 1
  m_Density: 0.000000
  m_IsTrigger: 0
  m_Offset: {x: 0.000000, y: 0.000000}
  m_Size: {x: 346.000000, y: 346.000000}
--- !u!1 &21
GameObject:
  m_Layer: solid_layer
  m_Name: haybale_type1_2
  m_TagString: Obstacle
  m_IsActive: 1
--- !u!4 &143
Transform:
  m_GameObject: {fileID: 21}
  m_LocalEulerAngles: {v: 0.000000}
  m_LocalPosition: {x: 1639.134399, y: 293.630798}
  m_LocalScale: {x: 0.140000, y: 0.140000}
  m_Parent: {fileID: 21}
--- !u!212 &144
SpriteRenderer:
  m_GameObject: {fileID: 21}
  m_Enable: 1
  m_Sprite: {fileName: Obstacles/haybale1}
  m_Flip: 0
  m_Color: {r: 1.000000, g: 1.000000, b: 1.000000, a: 1.000000}
  m_RenderType: {type: Stretch}
  m_Slice: {x: 0.000000, y: 0.000000, w: 0.000000, h: 0.000000}
  m_Order: 1
--- !u!61 &145
BoxCollider:
  m_GameObject: {fileID: 21}
  m_Enable: 1
  m_Density: 0.000000
  m_IsTrigger: 0
  m_Offset: {x: 0.000000, y: 0.000000}
  m_Size: {x: 346.000000, y: 346.000000}
--- !u!1 &22
GameObject:
  m_Layer: solid_layer
  m_Name: haybale_type2_0
  m_TagString: Obstacle
  m_IsActive: 1
--- !u!4 &146
Transform:
  m_GameObject: {fileID: 22}
  m_LocalEulerAngles: {v: 90.000000}
  m_LocalPosition: {x: 1697.919678, y: 394.430206}
  m_LocalScale: {x: 0.140000, y: 0.140000}
  m_Parent: {fileID: 22}
--- !u!212 &147
SpriteRenderer:
  m_GameObject: {fileID: 22}
  m_Enable: 1
  m_Sprite: {fileName: Obstacles/haybale2}
  m_Flip: 0
  m_Color: {r: 1.000000, g: 1.000000, b: 1.000000, a: 1.000000}
  m_RenderType: {type: Stretch}
  m_Slice: {x: 0.000000, y: 0.000000, w: 0.000000, h: 0.000000}
  m_Order: 1
--- !u!61 &148
BoxCollider:
  m_GameObject: {fileID: 22}
  m_Enable: 1
  m_Density: 0.000000
  m_IsTrigger: 0
  m_Offset: {x: 0.000000, y: 0.000000}
  m_Size: {x: 336.000000, y: 780.000000}
--- !u!1 &23
GameObject:
  m_Layer: solid_layer
  m_Name: haybale_type2_1
  m_TagString: Obstacle
  m_IsActive: 1
--- !u!4 &149
Transform:
  m_GameObject: {fileID: 23}
  m_LocalEulerAngles: {v: 0.000000}
  m_LocalPosition: {x: 2816.407471, y: 555.570190}
  m_LocalScale: {x: 0.140000, y: 0.140000}
  m_Parent: {fileID: 23}
--- !u!212 &150
SpriteRenderer:
  m_GameObject: {fileID: 23}
  m_Enable: 1
  m_Sprite: {fileName: Obstacles/haybale2}
  m_Flip: 0
  m_Color: {r: 1.000000, g: 1.000000, b: 1.000000, a: 1.000000}
  m_RenderType: {type: Stretch}
  m_Slice: {x: 0.000000, y: 0.000000, w: 0.000000, h: 0.000000}
  m_Order: 1
--- !u!61 &151
BoxCollider:
  m_GameObject: {fileID: 23}
  m_Enable: 1
  m_Density: 0.000000
  m_IsTrigger: 0
  m_Offset: {x: 0.000000, y: 0.000000}
  m_Size: {x: 336.000000, y: 780.000000}
--- !u!1 &24
GameObject:
  m_Layer: solid_layer
  m_Name: haybale_type2_2
  m_TagString: Obstacle
  m_IsActive: 1
--- !u!4 &152
Transform:
  m_GameObject: {fileID: 24}
  m_LocalEulerAngles: {v: 90.000000}
  m_LocalPosition: {x: 3380.513672, y: 1624.329834}
  m_LocalScale: {x: 0.140000, y: 0.140000}
  m_Parent: {fileID: 24}
--- !u!212 &153
SpriteRenderer:
  m_GameObject: {fileID: 24}
  m_Enable: 1
  m_Sprite: {fileName: Obstacles/haybale2}
  m_Flip: 0
  m_Color: {r: 1.000000, g: 1.000000, b: 1.000000, a: 1.000000}
  m_RenderType: {type: Stretch}
  m_Slice: {x: 0.000000, y: 0.000000, w: 0.000000, h: 0.000000}
  m_Order: 1
--- !u!61 &154
BoxCollider:
  m_GameObject: {fileID: 24}
  m_Enable: 1
  m_Density: 0.000000
  m_IsTrigger: 0
  m_Offset: {x: 0.000000, y: 0.000000}
  m_Size: {x: 336.000000, y: 780.000000}
--- !u!1 &25
GameObject:
  m_Layer: solid_layer
  m_Name: haybale_type2_3
  m_TagString: Obstacle
  m_IsActive: 1
--- !u!4 &155
Transform:
  m_GameObject: {fileID: 25}
  m_LocalEulerAngles: {v: 0.000000}
  m_LocalPosition: {x: 3313.978760, y: 1778.548340}
  m_LocalScale: {x: 0.140000, y: 0.140000}
  m_Parent: {fileID: 25}
--- !u!212 &156
SpriteRenderer:
  m_GameObject: {fileID: 25}
  m_Enable: 1
  m_Sprite: {fileName: Obstacles/haybale2}
  m_Flip: 0
  m_Color: {r: 1.000000, g: 1.000000, b: 1.000000, a: 1.000000}
  m_RenderType: {type: Stretch}
  m_Slice: {x: 0.000000, y: 0.000000, w: 0.000000, h: 0.000000}
  m_Order: 1
--- !u!61 &157
BoxCollider:
  m_GameObject: {fileID: 25}
  m_Enable: 1
  m_Density: 0.000000
  m_IsTrigger: 0
  m_Offset: {x: 0.000000, y: 0.000000}
  m_Size: {x: 336.000000, y: 780.000000}
--- !u!1 &26
GameObject:
  m_Layer: solid_layer
  m_Name: well_0
  m_TagString: Obstacle
  m_IsActive: 1
--- !u!4 &158
Transform:
  m_GameObject: {fileID: 26}
  m_LocalEulerAngles: {v: 0.000000}
  m_LocalPosition: {x: 2939.894043, y: 622.236572}
  m_LocalScale: {x: 0.200000, y: 0.200000}
  m_Parent: {fileID: 26}
--- !u!212 &159
SpriteRenderer:
  m_GameObject: {fileID: 26}
  m_Enable: 1
  m_Sprite: {fileName: Obstacles/water1}
  m_Flip: 0
  m_Color: {r: 1.000000, g: 1.000000, b: 1.000000, a: 1.000000}
  m_RenderType: {type: Stretch}
  m_Slice: {x: 0.000000, y: 0.000000, w: 0.000000, h: 0.000000}
  m_Order: 1
--- !u!58 &160
CircleCollider:
  m_GameObject: {fileID: 26}
  m_Enable: 1
  m_Density: 0.000000
  m_IsTrigger: 0
  m_Offset: {x: 0.000000, y: 0.000000}
  m_Radius: 74.000000
--- !u!1 &27
GameObject:
  m_Layer: solid_layer
  m_Name: well_1
  m_TagString: Obstacle
  m_IsActive: 1
--- !u!4 &161
Transform:
  m_GameObject: {fileID: 27}
  m_LocalEulerAngles: {v: -230.733505}
  m_LocalPosition: {x: 2438.114746, y: 1596.885010}
  m_LocalScale: {x: 0.120000, y: 0.120000}
  m_Parent: {fileID: 27}
--- !u!212 &162
SpriteRenderer:
  m_GameObject: {fileID: 27}
  m_Enable: 1
  m_Sprite: {fileName: Obstacles/water2}
  m_Flip: 0
  m_Color: {r: 1.000000, g: 1.000000, b: 1.000000, a: 1.000000}
  m_RenderType: {type: Stretch}
  m_Slice: {x: 0.000000, y: 0.000000, w: 0.000000, h: 0.000000}
  m_Order: 1
--- !u!61 &163
BoxCollider:
  m_GameObject: {fileID: 27}
  m_Enable: 1
  m_Density: 0.000000
  m_IsTrigger: 0
  m_Offset: {x: 0.000000, y: 0.000000}
  m_Size: {x: 318.000000, y: 720.000000}
--- !u!1 &28
GameObject:
  m_Layer: solid_layer
  m_Name: carrot_0
  m_TagString: Obstacle
  m_IsActive: 1
--- !u!4 &164
Transform:
  m_GameObject: {fileID: 28}
  m_LocalEulerAngles: {v: 90.000000}
  m_LocalPosition: {x: 2340.011963, y: 1687.470581}
  m_LocalScale: {x: 0.180000, y: 0.180000}
  m_Parent: {fileID: 28}
--- !u!212 &165
SpriteRenderer:
  m_GameObject: {fileID: 28}
  m_Enable: 1
  m_Sprite: {fileName: Obstacles/carrots}
  m_Flip: 0
  m_Color: {r: 1.000000, g: 1.000000, b: 1.000000, a: 1.000000}
  m_RenderType: {type: Stretch}
  m_Slice: {x: 0.000000, y: 0.000000, w: 0.000000, h: 0.000000}
  m_Order: 1
--- !u!61 &166
BoxCollider:
  m_GameObject: {fileID: 28}
  m_Enable: 1
  m_Density: 0.000000
  m_IsTrigger: 0
  m_Offset: {x: 0.000000, y: 5.000000}
  m_Size: {x: 290.000000, y: 374.000000}
--- !u!1 &29
GameObject:
  m_Layer: solid_layer
  m_Name: carrot_1
  m_TagString: Obstacle
  m_IsActive: 1
--- !u!4 &167
Transform:
  m_GameObject: {fileID: 29}
  m_LocalEulerAngles: {v: -90.000000}
  m_LocalPosition: {x: 866.092529, y: 349.805695}
  m_LocalScale: {x: 0.180000, y: 0.180000}
  m_Parent: {fileID: 29}
--- !u!212 &168
SpriteRenderer:
  m_GameObject: {fileID: 29}
  m_Enable: 1
  m_Sprite: {fileName: Obstacles/carrots}
  m_Flip: 0
  m_Color: {r: 1.000000, g: 1.000000, b: 1.000000, a: 1.000000}
  m_RenderType: {type: Stretch}
  m_Slice: {x: 0.000000, y: 0.000000, w: 0.000000, h: 0.000000}
  m_Order: 1
--- !u!61 &169
BoxCollider:
  m_GameObject: {fileID: 29}
  m_Enable: 1
  m_Density: 0.000000
  m_IsTrigger: 0
  m_Offset: {x: 0.000000, y: 5.000000}
  m_Size: {x: 290.000000, y: 374.000000}
--- !u!1 &30
GameObject:
  m_Layer: solid_layer
  m_Name: carrot_2
  m_TagString: Obstacle
  m_IsActive: 1
--- !u!4 &170
Transform:
  m_GameObject: {fileID: 30}
  m_LocalEulerAngles: {v: 90.000000}
  m_LocalPosition: {x: 635.130371, y: 1556.283325}
  m_LocalScale: {x: 0.180000, y: 0.180000}
  m_Parent: {fileID: 30}
--- !u!212 &171
SpriteRenderer:
  m_GameObject: {fileID: 30}
  m_Enable: 1
  m_Sprite: {fileName: Obstacles/carrots}
  m_Flip: 0
  m_Color: {r: 1.000000, g: 1.000000, b: 1.000000, a: 1.000000}
  m_RenderType: {type: Stretch}
  m_Slice: {x: 0.000000, y: 0.000000, w: 0.000000, h: 0.000000}
  m_Order: 1
--- !u!61 &172
BoxCollider:
  m_GameObject: {fileID: 30}
  m_Enable: 1
  m_Density: 0.000000
  m_IsTrigger: 0
  m_Offset: {x: 0.000000, y: 5.000000}
  m_Size: {x: 290.000000, y: 374.000000}
--- !u!1 &31
GameObject:
  m_Layer: solid_layer
  m_Name: cabbage_0
  m_TagString: Obstacle
  m_IsActive: 1
--- !u!4 &173
Transform:
  m_GameObject: {fileID: 31}
  m_LocalEulerAngles: {v: 0.000000}
  m_LocalPosition: {x: 742.000366, y: 1518.430786}
  m_LocalScale: {x: 0.120000, y: 0.120000}
  m_Parent: {fileID: 31}
--- !u!212 &174
SpriteRenderer:
  m_GameObject: {fileID: 31}
  m_Enable: 1
  m_Sprite: {fileName: Obstacles/cabbage}
  m_Flip: 0
  m_Color: {r: 1.000000, g: 1.000000, b: 1.000000, a: 1.000000}
  m_RenderType: {type: Stretch}
  m_Slice: {x: 0.000000, y: 0.000000, w: 0.000000, h: 0.000000}
  m_Order: 1
--- !u!61 &175
BoxCollider:
  m_GameObject: {fileID: 31}
  m_Enable: 1
  m_Density: 0.000000
  m_IsTrigger: 0
  m_Offset: {x: -1.000000, y: -3.000000}
  m_Size: {x: 350.000000, y: 780.000000}
--- !u!1 &32
GameObject:
  m_Layer: solid_layer
  m_Name: cabbage_1
  m_TagString: Obstacle
  m_IsActive: 1
--- !u!4 &176
Transform:
  m_GameObject: {fileID: 32}
  m_LocalEulerAngles: {v: 0.000000}
  m_LocalPosition: {x: 820.814087, y: 1516.151978}
  m_LocalScale: {x: 0.120000, y: 0.120000}
  m_Parent: {fileID: 32}
--- !u!212 &177
SpriteRenderer:
  m_GameObject: {fileID: 32}
  m_Enable: 1
  m_Sprite: {fileName: Obstacles/cabbage}
  m_Flip: 0
  m_Color: {r: 1.000000, g: 1.000000, b: 1.000000, a: 1.000000}
  m_RenderType: {type: Stretch}
  m_Slice: {x: 0.000000, y: 0.000000, w: 0.000000, h: 0.000000}
  m_Order: 1
--- !u!61 &178
BoxCollider:
  m_GameObject: {fileID: 32}
  m_Enable: 1
  m_Density: 0.000000
  m_IsTrigger: 0
  m_Offset: {x: -1.000000, y: -3.000000}
  m_Size: {x: 350.000000, y: 780.000000}
--- !u!1 &33
GameObject:
  m_Layer: 
  m_Name: cabbage_1
  m_TagString: Obstacle
  m_IsActive: 0
--- !u!4 &179
Transform:
  m_GameObject: {fileID: 33}
  m_LocalEulerAngles: {v: 0.000000}
  m_LocalPosition: {x: 1036.000000, y: 409.000000}
  m_LocalScale: {x: 1.000000, y: 1.000000}
  m_Parent: {fileID: 33}
--- !u!212 &180
SpriteRenderer:
  m_GameObject: {fileID: 33}
  m_Enable: 1
  m_Sprite: {fileName: Obstacles/cabbage}
  m_Flip: 0
  m_Color: {r: 1.000000, g: 1.000000, b: 1.000000, a: 1.000000}
  m_RenderType: {type: Stretch}
  m_Slice: {x: 0.000000, y: 0.000000, w: 0.000000, h: 0.000000}
  m_Order: 1
--- !u!61 &181
BoxCollider:
  m_GameObject: {fileID: 33}
  m_Enable: 1
  m_Density: 0.000000
  m_IsTrigger: 0
  m_Offset: {x: 0.000000, y: 0.000000}
  m_Size: {x: 50.000000, y: 50.000000}
--- !u!1 &34
GameObject:
  m_Layer: solid_layer
  m_Name: well_3
  m_TagString: Obstacle
  m_IsActive: 1
--- !u!4 &182
Transform:
  m_GameObject: {fileID: 34}
  m_LocalEulerAngles: {v: 124.000000}
  m_LocalPosition: {x: 734.247681, y: 354.894348}
  m_LocalScale: {x: 0.200000, y: 0.200000}
  m_Parent: {fileID: 34}
--- !u!212 &183
SpriteRenderer:
  m_GameObject: {fileID: 34}
  m_Enable: 1
  m_Sprite: {fileName: Obstacles/water1}
  m_Flip: 0
  m_Color: {r: 1.000000, g: 1.000000, b: 1.000000, a: 1.000000}
  m_RenderType: {type: Stretch}
  m_Slice: {x: 0.000000, y: 0.000000, w: 0.000000, h: 0.000000}
  m_Order: 1
--- !u!58 &184
CircleCollider:
  m_GameObject: {fileID: 34}
  m_Enable: 1
  m_Density: 0.000000
  m_IsTrigger: 0
  m_Offset: {x: 0.000000, y: 0.000000}
  m_Radius: 74.000000
--- !u!61 &185
BoxCollider:
  m_GameObject: {fileID: 34}
  m_Enable: 1
  m_Density: 0.000000
  m_IsTrigger: 0
  m_Offset: {x: 0.000000, y: 0.000000}
  m_Size: {x: 50.000000, y: 50.000000}
--- !u!1 &35
GameObject:
  m_Layer: solid_layer
  m_Name: cart_0
  m_TagString: Obstacle
  m_IsActive: 1
--- !u!4 &186
Transform:
  m_GameObject: {fileID: 35}
  m_LocalEulerAngles: {v: 0.000000}
  m_LocalPosition: {x: 90.387543, y: 854.599243}
  m_LocalScale: {x: 0.150000, y: 0.150000}
  m_Parent: {fileID: 35}
--- !u!212 &187
SpriteRenderer:
  m_GameObject: {fileID: 35}
  m_Enable: 1
  m_Sprite: {fileName: Obstacles/cart}
  m_Flip: 0
  m_Color: {r: 1.000000, g: 1.000000, b: 1.000000, a: 1.000000}
  m_RenderType: {type: Stretch}
  m_Slice: {x: 0.000000, y: 0.000000, w: 0.000000, h: 0.000000}
  m_Order: 1
--- !u!61 &188
BoxCollider:
  m_GameObject: {fileID: 35}
  m_Enable: 1
  m_Density: 0.000000
  m_IsTrigger: 0
  m_Offset: {x: 0.000000, y: 0.000000}
  m_Size: {x: 304.000000, y: 720.000000}
--- !u!1 &36
GameObject:
  m_Layer: solid_layer
  m_Name: cart_1
  m_TagString: Obstacle
  m_IsActive: 1
--- !u!4 &189
Transform:
  m_GameObject: {fileID: 36}
  m_LocalEulerAngles: {v: -269.290436}
  m_LocalPosition: {x: 245.078308, y: 996.270691}
  m_LocalScale: {x: 0.150000, y: 0.150000}
  m_Parent: {fileID: 36}
--- !u!212 &190
SpriteRenderer:
  m_GameObject: {fileID: 36}
  m_Enable: 1
  m_Sprite: {fileName: Obstacles/cart}
  m_Flip: 0
  m_Color: {r: 1.000000, g: 1.000000, b: 1.000000, a: 1.000000}
  m_RenderType: {type: Stretch}
  m_Slice: {x: 0.000000, y: 0.000000, w: 0.000000, h: 0.000000}
  m_Order: 1
--- !u!61 &191
BoxCollider:
  m_GameObject: {fileID: 36}
  m_Enable: 1
  m_Density: 0.000000
  m_IsTrigger: 0
  m_Offset: {x: 0.000000, y: 0.000000}
  m_Size: {x: 304.000000, y: 720.000000}
--- !u!58 &192
CircleCollider:
  m_GameObject: {fileID: 36}
  m_Enable: 1
  m_Density: 0.000000
  m_IsTrigger: 0
  m_Offset: {x: 0.000000, y: 0.000000}
  m_Radius: 100.000000
--- !u!1 &37
GameObject:
  m_Layer: 
  m_Name: hose_0
  m_TagString: Obstacle
  m_IsActive: 1
--- !u!4 &193
Transform:
  m_GameObject: {fileID: 37}
  m_LocalEulerAngles: {v: 0.000000}
  m_LocalPosition: {x: 93.000000, y: 994.000000}
  m_LocalScale: {x: 0.150000, y: 0.150000}
  m_Parent: {fileID: 37}
--- !u!212 &194
SpriteRenderer:
  m_GameObject: {fileID: 37}
  m_Enable: 1
  m_Sprite: {fileName: Obstacles/hose}
  m_Flip: 0
  m_Color: {r: 1.000000, g: 1.000000, b: 1.000000, a: 1.000000}
  m_RenderType: {type: Stretch}
  m_Slice: {x: 0.000000, y: 0.000000, w: 0.000000, h: 0.000000}
  m_Order: 0
--- !u!58 &195
CircleCollider:
  m_GameObject: {fileID: 37}
  m_Enable: 1
  m_Density: 0.000000
  m_IsTrigger: 0
  m_Offset: {x: 1.000000, y: 1.000000}
  m_Radius: 55.000000
--- !u!1 &38
GameObject:
  m_Layer: 
  m_Name: fence_0
  m_TagString: Untagged
  m_IsActive: 0
--- !u!4 &196
Transform:
  m_GameObject: {fileID: 38}
  m_LocalEulerAngles: {v: 180.000000}
  m_LocalPosition: {x: 966.388184, y: 1066.753418}
  m_LocalScale: {x: 1.040000, y: 1.000000}
  m_Parent: {fileID: 38}
--- !u!212 &197
SpriteRenderer:
  m_GameObject: {fileID: 38}
  m_Enable: 1
  m_Sprite: {fileName: Obstacles/fence_horizontal}
  m_Flip: 0
  m_Color: {r: 1.000000, g: 1.000000, b: 1.000000, a: 1.000000}
  m_RenderType: {type: Stretch}
  m_Slice: {x: 0.000000, y: 0.000000, w: 0.000000, h: 0.000000}
  m_Order: 1
--- !u!1 &39
GameObject:
  m_Layer: 
  m_Name: fence_1
  m_TagString: Untagged
  m_IsActive: 0
--- !u!4 &198
Transform:
  m_GameObject: {fileID: 39}
  m_LocalEulerAngles: {v: 180.000000}
  m_LocalPosition: {x: 966.541504, y: 34.679092}
  m_LocalScale: {x: 1.040000, y: 1.000000}
  m_Parent: {fileID: 39}
--- !u!212 &199
SpriteRenderer:
  m_GameObject: {fileID: 39}
  m_Enable: 1
  m_Sprite: {fileName: Obstacles/fence_horizontal}
  m_Flip: 0
  m_Color: {r: 1.000000, g: 1.000000, b: 1.000000, a: 1.000000}
  m_RenderType: {type: Stretch}
  m_Slice: {x: 0.000000, y: 0.000000, w: 0.000000, h: 0.000000}
  m_Order: 1
--- !u!1 &40
GameObject:
  m_Layer: 
  m_Name: fence_2
  m_TagString: Untagged
  m_IsActive: 0
--- !u!4 &200
Transform:
  m_GameObject: {fileID: 40}
  m_LocalEulerAngles: {v: 0.000000}
  m_LocalPosition: {x: 1909.890503, y: 551.299805}
  m_LocalScale: {x: 1.000000, y: 1.020000}
  m_Parent: {fileID: 40}
--- !u!212 &201
SpriteRenderer:
  m_GameObject: {fileID: 40}
  m_Enable: 1
  m_Sprite: {fileName: Obstacles/fence_verticle}
  m_Flip: 0
  m_Color: {r: 1.000000, g: 1.000000, b: 1.000000, a: 1.000000}
  m_RenderType: {type: Stretch}
  m_Slice: {x: 0.000000, y: 0.000000, w: 0.000000, h: 0.000000}
  m_Order: 1
--- !u!1 &41
GameObject:
  m_Layer: 
  m_Name: fence_3
  m_TagString: Untagged
  m_IsActive: 0
--- !u!4 &202
Transform:
  m_GameObject: {fileID: 41}
  m_LocalEulerAngles: {v: 180.000000}
  m_LocalPosition: {x: 16.721191, y: 550.860352}
  m_LocalScale: {x: 1.000000, y: 1.020000}
  m_Parent: {fileID: 41}
--- !u!212 &203
SpriteRenderer:
  m_GameObject: {fileID: 41}
  m_Enable: 1
  m_Sprite: {fileName: Obstacles/fence_verticle}
  m_Flip: 0
  m_Color: {r: 1.000000, g: 1.000000, b: 1.000000, a: 1.000000}
  m_RenderType: {type: Stretch}
  m_Slice: {x: 0.000000, y: 0.000000, w: 0.000000, h: 0.000000}
  m_Order: 1
--- !u!1 &42
GameObject:
  m_Layer: 
  m_Name: gate_0
  m_TagString: Untagged
  m_IsActive: 0
--- !u!4 &204
Transform:
  m_GameObject: {fileID: 42}
  m_LocalEulerAngles: {v: 180.000000}
  m_LocalPosition: {x: 10.028549, y: 550.862671}
  m_LocalScale: {x: 1.000000, y: 1.000000}
  m_Parent: {fileID: 42}
--- !u!212 &205
SpriteRenderer:
  m_GameObject: {fileID: 42}
  m_Enable: 1
  m_Sprite: {fileName: Obstacles/fence_gate}
  m_Flip: 0
  m_Color: {r: 1.000000, g: 1.000000, b: 1.000000, a: 1.000000}
  m_RenderType: {type: Stretch}
  m_Slice: {x: 0.000000, y: 0.000000, w: 0.000000, h: 0.000000}
  m_Order: 1
--- !u!1 &43
GameObject:
  m_Layer: 
  m_Name: gate_1
  m_TagString: Untagged
  m_IsActive: 0
--- !u!4 &206
Transform:
  m_GameObject: {fileID: 43}
  m_LocalEulerAngles: {v: 0.000000}
  m_LocalPosition: {x: 1915.771606, y: 552.694275}
  m_LocalScale: {x: 1.000000, y: 1.000000}
  m_Parent: {fileID: 43}
--- !u!212 &207
SpriteRenderer:
  m_GameObject: {fileID: 43}
  m_Enable: 1
  m_Sprite: {fileName: Obstacles/fence_gate}
  m_Flip: 0
  m_Color: {r: 1.000000, g: 1.000000, b: 1.000000, a: 1.000000}
  m_RenderType: {type: Stretch}
  m_Slice: {x: 0.000000, y: 0.000000, w: 0.000000, h: 0.000000}
  m_Order: 1
--- !u!1 &44
GameObject:
  m_Layer: 
  m_Name: gate_2
  m_TagString: Untagged
  m_IsActive: 0
--- !u!4 &208
Transform:
  m_GameObject: {fileID: 44}
  m_LocalEulerAngles: {v: 270.000000}
  m_LocalPosition: {x: 964.447876, y: 1059.415039}
  m_LocalScale: {x: 1.000000, y: 1.000000}
  m_Parent: {fileID: 44}
--- !u!212 &209
SpriteRenderer:
  m_GameObject: {fileID: 44}
  m_Enable: 1
  m_Sprite: {fileName: Obstacles/fence_gate}
  m_Flip: 0
  m_Color: {r: 1.000000, g: 1.000000, b: 1.000000, a: 1.000000}
  m_RenderType: {type: Stretch}
  m_Slice: {x: 0.000000, y: 0.000000, w: 0.000000, h: 0.000000}
  m_Order: 1
--- !u!1 &45
GameObject:
  m_Layer: 
  m_Name: Tutorial Controller
  m_TagString: Untagged
  m_IsActive: 1
--- !u!4 &210
Transform:
  m_GameObject: {fileID: 45}
  m_LocalEulerAngles: {v: 0.000000}
  m_LocalPosition: {x: 0.000000, y: 0.000000}
  m_LocalScale: {x: 1.000000, y: 1.000000}
  m_Parent: {fileID: 45}
--- !u!1 &46
GameObject:
  m_Layer: 
  m_Name: NextRoomArrow
  m_TagString: Untagged
  m_IsActive: 0
--- !u!4 &211
Transform:
  m_GameObject: {fileID: 46}
  m_LocalEulerAngles: {v: 90.000000}
  m_LocalPosition: {x: 3526.326904, y: 960.000000}
  m_LocalScale: {x: 0.384856, y: 0.384856}
  m_Parent: {fileID: 46}
--- !u!212 &212
SpriteRenderer:
  m_GameObject: {fileID: 46}
  m_Enable: 1
  m_Sprite: {fileName: whiteTriangle}
  m_Flip: 0
  m_Color: {r: 1.000000, g: 1.000000, b: 1.000000, a: 1.000000}
  m_RenderType: {type: Stretch}
  m_Slice: {x: 0.000000, y: 0.000000, w: 0.000000, h: 0.000000}
  m_Order: 10
--- !u!61 &213
BoxCollider:
  m_GameObject: {fileID: 46}
  m_Enable: 1
  m_Density: 0.000000
  m_IsTrigger: 1
  m_Offset: {x: 0.000000, y: 0.000000}
  m_Size: {x: 238.000000, y: 72.000000}
--- !u!1 &47
GameObject:
  m_Layer: 
  m_Name: main gate
  m_TagString: Untagged
  m_IsActive: 0
--- !u!4 &214
Transform:
  m_GameObject: {fileID: 47}
  m_LocalEulerAngles: {v: -90.000000}
  m_LocalPosition: {x: 965.547485, y: 25.060455}
  m_LocalScale: {x: 1.000000, y: 1.000000}
  m_Parent: {fileID: 47}
--- !u!212 &215
SpriteRenderer:
  m_GameObject: {fileID: 47}
  m_Enable: 1
  m_Sprite: {fileName: Obstacles/fence_gate}
  m_Flip: 0
  m_Color: {r: 1.000000, g: 1.000000, b: 1.000000, a: 1.000000}
  m_RenderType: {type: Stretch}
  m_Slice: {x: 0.000000, y: 0.000000, w: 0.000000, h: 0.000000}
  m_Order: 0
--- !u!1 &48
GameObject:
  m_Layer: 
  m_Name: PlayerHealth
  m_TagString: Untagged
  m_IsActive: 1
--- !u!4 &216
Transform:
  m_GameObject: {fileID: 48}
  m_LocalEulerAngles: {v: 0.000000}
  m_LocalPosition: {x: -830.605347, y: -466.192169}
  m_LocalScale: {x: 4.766285, y: 4.766285}
  m_Parent: {fileID: 1}
--- !u!102 &217
TextRenderer:
  m_GameObject: {fileID: 48}
  m_Enable: 1
  m_Text: {textData: }
  m_Font: {fileName: GeosansLight.ttf}
  m_FontStyle: 1
  m_FontSize: 111.000000
  m_FontColor: {r: 1.000000, g: 1.000000, b: 1.000000, a: 1.000000}
  m_Order: 31
--- !u!1 &49
GameObject:
  m_Layer: 
  m_Name: Background
  m_TagString: Untagged
  m_IsActive: 1
--- !u!4 &218
Transform:
  m_GameObject: {fileID: 49}
  m_LocalEulerAngles: {v: 0.000000}
  m_LocalPosition: {x: 2880.881592, y: 540.000000}
  m_LocalScale: {x: 1.000000, y: 1.000000}
  m_Parent: {fileID: 49}
--- !u!212 &219
SpriteRenderer:
  m_GameObject: {fileID: 49}
  m_Enable: 1
  m_Sprite: {fileName: Grounds/Ground_Green}
  m_Flip: 0
  m_Color: {r: 1.000000, g: 1.000000, b: 1.000000, a: 1.000000}
  m_RenderType: {type: Stretch}
  m_Slice: {x: 0.000000, y: 0.000000, w: 0.000000, h: 0.000000}
  m_Order: -1
--- !u!1 &50
GameObject:
  m_Layer: 
  m_Name: Background
  m_TagString: Untagged
  m_IsActive: 1
--- !u!4 &220
Transform:
  m_GameObject: {fileID: 50}
  m_LocalEulerAngles: {v: 0.000000}
  m_LocalPosition: {x: 960.000000, y: 1620.239624}
  m_LocalScale: {x: 1.000000, y: 1.000000}
  m_Parent: {fileID: 50}
--- !u!212 &221
SpriteRenderer:
  m_GameObject: {fileID: 50}
  m_Enable: 1
  m_Sprite: {fileName: Grounds/Ground_Green}
  m_Flip: 0
  m_Color: {r: 1.000000, g: 1.000000, b: 1.000000, a: 1.000000}
  m_RenderType: {type: Stretch}
  m_Slice: {x: 0.000000, y: 0.000000, w: 0.000000, h: 0.000000}
  m_Order: -1
--- !u!1 &51
GameObject:
  m_Layer: 
  m_Name: Background
  m_TagString: Untagged
  m_IsActive: 1
--- !u!4 &222
Transform:
  m_GameObject: {fileID: 51}
  m_LocalEulerAngles: {v: 0.000000}
  m_LocalPosition: {x: 2874.212891, y: 1615.401367}
  m_LocalScale: {x: 1.000000, y: 1.000000}
  m_Parent: {fileID: 51}
--- !u!212 &223
SpriteRenderer:
  m_GameObject: {fileID: 51}
  m_Enable: 1
  m_Sprite: {fileName: Grounds/Ground_Green}
  m_Flip: 0
  m_Color: {r: 1.000000, g: 1.000000, b: 1.000000, a: 1.000000}
  m_RenderType: {type: Stretch}
  m_Slice: {x: 0.000000, y: 0.000000, w: 0.000000, h: 0.000000}
  m_Order: -1
--- !u!1 &52
GameObject:
  m_Layer: 
  m_Name: grass_type1_0
  m_TagString: Untagged
  m_IsActive: 1
--- !u!4 &224
Transform:
  m_GameObject: {fileID: 52}
  m_LocalEulerAngles: {v: 0.000000}
  m_LocalPosition: {x: 551.000000, y: 426.000000}
  m_LocalScale: {x: 1.000000, y: 1.000000}
  m_Parent: {fileID: 52}
--- !u!212 &225
SpriteRenderer:
  m_GameObject: {fileID: 52}
  m_Enable: 1
  m_Sprite: {fileName: Decorations/grass1}
  m_Flip: 0
  m_Color: {r: 0.385574, g: 0.651961, b: 0.303609, a: 1.000000}
  m_RenderType: {type: Stretch}
  m_Slice: {x: 0.000000, y: 0.000000, w: 0.000000, h: 0.000000}
  m_Order: 0
--- !u!1 &53
GameObject:
  m_Layer: 
  m_Name: grass_type2_0
  m_TagString: Untagged
  m_IsActive: 1
--- !u!4 &226
Transform:
  m_GameObject: {fileID: 53}
  m_LocalEulerAngles: {v: 0.000000}
  m_LocalPosition: {x: 2322.634521, y: 278.440277}
  m_LocalScale: {x: 1.000000, y: 1.000000}
  m_Parent: {fileID: 53}
--- !u!212 &227
SpriteRenderer:
  m_GameObject: {fileID: 53}
  m_Enable: 1
  m_Sprite: {fileName: Decorations/grass2}
  m_Flip: 0
  m_Color: {r: 0.281379, g: 0.519608, b: 0.249616, a: 1.000000}
  m_RenderType: {type: Stretch}
  m_Slice: {x: 0.000000, y: 0.000000, w: 0.000000, h: 0.000000}
  m_Order: 0
--- !u!1 &54
GameObject:
  m_Layer: 
  m_Name: grass_type3_0
  m_TagString: Untagged
  m_IsActive: 1
--- !u!4 &228
Transform:
  m_GameObject: {fileID: 54}
  m_LocalEulerAngles: {v: 3.000000}
  m_LocalPosition: {x: 1320.794556, y: 900.066895}
  m_LocalScale: {x: 1.000000, y: 1.000000}
  m_Parent: {fileID: 54}
--- !u!212 &229
SpriteRenderer:
  m_GameObject: {fileID: 54}
  m_Enable: 1
  m_Sprite: {fileName: Decorations/grass3}
  m_Flip: 0
  m_Color: {r: 0.157295, g: 0.504902, b: 0.096525, a: 1.000000}
  m_RenderType: {type: Stretch}
  m_Slice: {x: 0.000000, y: 0.000000, w: 0.000000, h: 0.000000}
  m_Order: 0
--- !u!1 &55
GameObject:
  m_Layer: 
  m_Name: grass_type1_1
  m_TagString: Untagged
  m_IsActive: 1
--- !u!4 &230
Transform:
  m_GameObject: {fileID: 55}
  m_LocalEulerAngles: {v: 0.000000}
  m_LocalPosition: {x: 541.755981, y: 1663.585571}
  m_LocalScale: {x: 1.000000, y: 1.000000}
  m_Parent: {fileID: 55}
--- !u!212 &231
SpriteRenderer:
  m_GameObject: {fileID: 55}
  m_Enable: 1
  m_Sprite: {fileName: Decorations/grass1}
  m_Flip: 0
  m_Color: {r: 0.383035, g: 0.553922, b: 0.290537, a: 1.000000}
  m_RenderType: {type: Stretch}
  m_Slice: {x: 0.000000, y: 0.000000, w: 0.000000, h: 0.000000}
  m_Order: 0
--- !u!1 &56
GameObject:
  m_Layer: 
  m_Name: grass_type2_1
  m_TagString: Untagged
  m_IsActive: 1
--- !u!4 &232
Transform:
  m_GameObject: {fileID: 56}
  m_LocalEulerAngles: {v: 0.000000}
  m_LocalPosition: {x: 3390.748047, y: 1905.010498}
  m_LocalScale: {x: 1.000000, y: 1.000000}
  m_Parent: {fileID: 56}
--- !u!212 &233
SpriteRenderer:
  m_GameObject: {fileID: 56}
  m_Enable: 1
  m_Sprite: {fileName: Decorations/grass2}
  m_Flip: 0
  m_Color: {r: 0.350435, g: 0.573529, b: 0.174308, a: 1.000000}
  m_RenderType: {type: Stretch}
  m_Slice: {x: 0.000000, y: 0.000000, w: 0.000000, h: 0.000000}
  m_Order: 0
--- !u!1 &57
GameObject:
  m_Layer: 
  m_Name: grass_type3_1
  m_TagString: Untagged
  m_IsActive: 1
--- !u!4 &234
Transform:
  m_GameObject: {fileID: 57}
  m_LocalEulerAngles: {v: 0.000000}
  m_LocalPosition: {x: 2567.693359, y: 1290.121704}
  m_LocalScale: {x: 1.000000, y: 1.000000}
  m_Parent: {fileID: 57}
--- !u!212 &235
SpriteRenderer:
  m_GameObject: {fileID: 57}
  m_Enable: 1
  m_Sprite: {fileName: Decorations/grass3}
  m_Flip: 0
  m_Color: {r: 0.221644, g: 0.558824, b: 0.134227, a: 1.000000}
  m_RenderType: {type: Stretch}
  m_Slice: {x: 0.000000, y: 0.000000, w: 0.000000, h: 0.000000}
  m_Order: 0
--- !u!1 &58
GameObject:
  m_Layer: 
  m_Name: grass_type1_2
  m_TagString: Untagged
  m_IsActive: 1
--- !u!4 &236
Transform:
  m_GameObject: {fileID: 58}
  m_LocalEulerAngles: {v: 0.000000}
  m_LocalPosition: {x: 1561.116943, y: 1674.349731}
  m_LocalScale: {x: 1.000000, y: 1.000000}
  m_Parent: {fileID: 58}
--- !u!212 &237
SpriteRenderer:
  m_GameObject: {fileID: 58}
  m_Enable: 1
  m_Sprite: {fileName: Decorations/grass1}
  m_Flip: 0
  m_Color: {r: 0.290668, g: 0.593137, b: 0.212250, a: 1.000000}
  m_RenderType: {type: Stretch}
  m_Slice: {x: 0.000000, y: 0.000000, w: 0.000000, h: 0.000000}
  m_Order: 0
--- !u!1 &59
GameObject:
  m_Layer: 
  m_Name: grass_type3_2
  m_TagString: Untagged
  m_IsActive: 1
--- !u!4 &238
Transform:
  m_GameObject: {fileID: 59}
  m_LocalEulerAngles: {v: 0.000000}
  m_LocalPosition: {x: 3438.644043, y: 606.770630}
  m_LocalScale: {x: 1.000000, y: 1.000000}
  m_Parent: {fileID: 59}
--- !u!212 &239
SpriteRenderer:
  m_GameObject: {fileID: 59}
  m_Enable: 1
  m_Sprite: {fileName: Decorations/grass3}
  m_Flip: 0
  m_Color: {r: 0.202213, g: 0.563725, b: 0.179618, a: 1.000000}
  m_RenderType: {type: Stretch}
  m_Slice: {x: 0.000000, y: 0.000000, w: 0.000000, h: 0.000000}
  m_Order: 0
--- !u!1 &60
GameObject:
  m_Layer: 
  m_Name: flower_type1_0
  m_TagString: Untagged
  m_IsActive: 1
--- !u!4 &240
Transform:
  m_GameObject: {fileID: 60}
  m_LocalEulerAngles: {v: 0.000000}
  m_LocalPosition: {x: 319.205627, y: 1234.535156}
  m_LocalScale: {x: 0.700000, y: 0.700000}
  m_Parent: {fileID: 60}
--- !u!212 &241
SpriteRenderer:
  m_GameObject: {fileID: 60}
  m_Enable: 1
  m_Sprite: {fileName: Decorations/flower1}
  m_Flip: 0
  m_Color: {r: 1.000000, g: 1.000000, b: 1.000000, a: 1.000000}
  m_RenderType: {type: Stretch}
  m_Slice: {x: 0.000000, y: 0.000000, w: 0.000000, h: 0.000000}
  m_Order: 0
--- !u!1 &61
GameObject:
  m_Layer: 
  m_Name: flower_type1_1
  m_TagString: Untagged
  m_IsActive: 1
--- !u!4 &242
Transform:
  m_GameObject: {fileID: 61}
  m_LocalEulerAngles: {v: 0.000000}
  m_LocalPosition: {x: 1980.867188, y: 895.049072}
  m_LocalScale: {x: 0.700000, y: 0.700000}
  m_Parent: {fileID: 61}
--- !u!212 &243
SpriteRenderer:
  m_GameObject: {fileID: 61}
  m_Enable: 1
  m_Sprite: {fileName: Decorations/flower1}
  m_Flip: 0
  m_Color: {r: 1.000000, g: 1.000000, b: 1.000000, a: 1.000000}
  m_RenderType: {type: Stretch}
  m_Slice: {x: 0.000000, y: 0.000000, w: 0.000000, h: 0.000000}
  m_Order: 0
--- !u!1 &62
GameObject:
  m_Layer: 
  m_Name: flower_type1_2
  m_TagString: Untagged
  m_IsActive: 1
--- !u!4 &244
Transform:
  m_GameObject: {fileID: 62}
  m_LocalEulerAngles: {v: 0.000000}
  m_LocalPosition: {x: 2750.498535, y: 1956.592285}
  m_LocalScale: {x: 0.700000, y: 0.700000}
  m_Parent: {fileID: 62}
--- !u!212 &245
SpriteRenderer:
  m_GameObject: {fileID: 62}
  m_Enable: 1
  m_Sprite: {fileName: Decorations/flower1}
  m_Flip: 0
  m_Color: {r: 1.000000, g: 1.000000, b: 1.000000, a: 1.000000}
  m_RenderType: {type: Stretch}
  m_Slice: {x: 0.000000, y: 0.000000, w: 0.000000, h: 0.000000}
  m_Order: 0
--- !u!1 &63
GameObject:
  m_Layer: 
  m_Name: flower_type2_0
  m_TagString: Untagged
  m_IsActive: 1
--- !u!4 &246
Transform:
  m_GameObject: {fileID: 63}
  m_LocalEulerAngles: {v: 0.000000}
  m_LocalPosition: {x: 290.689575, y: 159.751831}
  m_LocalScale: {x: 0.700000, y: 0.700000}
  m_Parent: {fileID: 63}
--- !u!212 &247
SpriteRenderer:
  m_GameObject: {fileID: 63}
  m_Enable: 1
  m_Sprite: {fileName: Decorations/flower2}
  m_Flip: 0
  m_Color: {r: 1.000000, g: 1.000000, b: 1.000000, a: 1.000000}
  m_RenderType: {type: Stretch}
  m_Slice: {x: 0.000000, y: 0.000000, w: 0.000000, h: 0.000000}
  m_Order: 0
--- !u!1 &64
GameObject:
  m_Layer: 
  m_Name: flower_type2_1
  m_TagString: Untagged
  m_IsActive: 1
--- !u!4 &248
Transform:
  m_GameObject: {fileID: 64}
  m_LocalEulerAngles: {v: 0.000000}
  m_LocalPosition: {x: 976.943359, y: 2004.855957}
  m_LocalScale: {x: 0.700000, y: 0.700000}
  m_Parent: {fileID: 64}
--- !u!212 &249
SpriteRenderer:
  m_GameObject: {fileID: 64}
  m_Enable: 1
  m_Sprite: {fileName: Decorations/flower2}
  m_Flip: 0
  m_Color: {r: 1.000000, g: 1.000000, b: 1.000000, a: 1.000000}
  m_RenderType: {type: Stretch}
  m_Slice: {x: 0.000000, y: 0.000000, w: 0.000000, h: 0.000000}
  m_Order: 0
--- !u!1 &65
GameObject:
  m_Layer: 
  m_Name: flower_type2_2
  m_TagString: Untagged
  m_IsActive: 1
--- !u!4 &250
Transform:
  m_GameObject: {fileID: 65}
  m_LocalEulerAngles: {v: 0.000000}
  m_LocalPosition: {x: 2982.706055, y: 215.233337}
  m_LocalScale: {x: 0.700000, y: 0.700000}
  m_Parent: {fileID: 65}
--- !u!212 &251
SpriteRenderer:
  m_GameObject: {fileID: 65}
  m_Enable: 1
  m_Sprite: {fileName: Decorations/flower2}
  m_Flip: 0
  m_Color: {r: 1.000000, g: 1.000000, b: 1.000000, a: 1.000000}
  m_RenderType: {type: Stretch}
  m_Slice: {x: 0.000000, y: 0.000000, w: 0.000000, h: 0.000000}
  m_Order: 0
--- !u!1 &66
GameObject:
  m_Layer: 
  m_Name: flower_type2_3
  m_TagString: Untagged
  m_IsActive: 1
--- !u!4 &252
Transform:
  m_GameObject: {fileID: 66}
  m_LocalEulerAngles: {v: 0.000000}
  m_LocalPosition: {x: 3285.228516, y: 1294.584106}
  m_LocalScale: {x: 0.700000, y: 0.700000}
  m_Parent: {fileID: 66}
--- !u!212 &253
SpriteRenderer:
  m_GameObject: {fileID: 66}
  m_Enable: 1
  m_Sprite: {fileName: Decorations/flower2}
  m_Flip: 0
  m_Color: {r: 1.000000, g: 1.000000, b: 1.000000, a: 1.000000}
  m_RenderType: {type: Stretch}
  m_Slice: {x: 0.000000, y: 0.000000, w: 0.000000, h: 0.000000}
  m_Order: 0
--- !u!1 &67
GameObject:
  m_Layer: 
  m_Name: river_0
  m_TagString: Untagged
  m_IsActive: 1
--- !u!4 &254
Transform:
  m_GameObject: {fileID: 67}
  m_LocalEulerAngles: {v: 180.000000}
  m_LocalPosition: {x: 3778.000000, y: 450.000000}
  m_LocalScale: {x: 1.000000, y: 1.000000}
  m_Parent: {fileID: 67}
--- !u!212 &255
SpriteRenderer:
  m_GameObject: {fileID: 67}
  m_Enable: 1
  m_Sprite: {fileName: Decorations/river}
  m_Flip: 0
  m_Color: {r: 1.000000, g: 1.000000, b: 1.000000, a: 1.000000}
  m_RenderType: {type: Stretch}
  m_Slice: {x: 0.000000, y: 0.000000, w: 0.000000, h: 0.000000}
  m_Order: 0
--- !u!1 &68
GameObject:
  m_Layer: 
  m_Name: river_1
  m_TagString: Untagged
  m_IsActive: 1
--- !u!4 &256
Transform:
  m_GameObject: {fileID: 68}
  m_LocalEulerAngles: {v: 180.000000}
  m_LocalPosition: {x: 3775.594971, y: 1350.000000}
  m_LocalScale: {x: 1.000000, y: 1.000000}
  m_Parent: {fileID: 68}
--- !u!212 &257
SpriteRenderer:
  m_GameObject: {fileID: 68}
  m_Enable: 1
  m_Sprite: {fileName: Decorations/river}
  m_Flip: 0
  m_Color: {r: 1.000000, g: 1.000000, b: 1.000000, a: 1.000000}
  m_RenderType: {type: Stretch}
  m_Slice: {x: 0.000000, y: 0.000000, w: 0.000000, h: 0.000000}
  m_Order: 0
--- !u!1 &69
GameObject:
  m_Layer: 
  m_Name: river_2
  m_TagString: Untagged
  m_IsActive: 1
--- !u!4 &258
Transform:
  m_GameObject: {fileID: 69}
  m_LocalEulerAngles: {v: 180.000000}
  m_LocalPosition: {x: 3771.206543, y: 2250.000000}
  m_LocalScale: {x: 1.000000, y: 1.000000}
  m_Parent: {fileID: 69}
--- !u!212 &259
SpriteRenderer:
  m_GameObject: {fileID: 69}
  m_Enable: 1
  m_Sprite: {fileName: Decorations/river}
  m_Flip: 0
  m_Color: {r: 1.000000, g: 1.000000, b: 1.000000, a: 1.000000}
  m_RenderType: {type: Stretch}
  m_Slice: {x: 0.000000, y: 0.000000, w: 0.000000, h: 0.000000}
  m_Order: 0
--- !u!1 &70
GameObject:
  m_Layer: 
  m_Name: rocks_type1_0
  m_TagString: Untagged
  m_IsActive: 1
--- !u!4 &260
Transform:
  m_GameObject: {fileID: 70}
  m_LocalEulerAngles: {v: 0.000000}
  m_LocalPosition: {x: 766.756531, y: 983.696228}
  m_LocalScale: {x: 0.280000, y: 0.280000}
  m_Parent: {fileID: 70}
--- !u!212 &261
SpriteRenderer:
  m_GameObject: {fileID: 70}
  m_Enable: 1
  m_Sprite: {fileName: Decorations/rocks1}
  m_Flip: 0
  m_Color: {r: 1.000000, g: 1.000000, b: 1.000000, a: 1.000000}
  m_RenderType: {type: Stretch}
  m_Slice: {x: 0.000000, y: 0.000000, w: 0.000000, h: 0.000000}
  m_Order: 0
--- !u!1 &71
GameObject:
  m_Layer: 
  m_Name: rocks_type2_0
  m_TagString: Untagged
  m_IsActive: 1
--- !u!4 &262
Transform:
  m_GameObject: {fileID: 71}
  m_LocalEulerAngles: {v: 0.000000}
  m_LocalPosition: {x: 2048.673828, y: 1401.345459}
  m_LocalScale: {x: 0.520000, y: 0.520000}
  m_Parent: {fileID: 71}
--- !u!212 &263
SpriteRenderer:
  m_GameObject: {fileID: 71}
  m_Enable: 1
  m_Sprite: {fileName: Decorations/rocks2}
  m_Flip: 0
  m_Color: {r: 1.000000, g: 1.000000, b: 1.000000, a: 1.000000}
  m_RenderType: {type: Stretch}
  m_Slice: {x: 0.000000, y: 0.000000, w: 0.000000, h: 0.000000}
  m_Order: 0
--- !u!1 &72
GameObject:
  m_Layer: 
  m_Name: rocks_type2_1
  m_TagString: Untagged
  m_IsActive: 1
--- !u!4 &264
Transform:
  m_GameObject: {fileID: 72}
  m_LocalEulerAngles: {v: -25.000000}
  m_LocalPosition: {x: 919.485107, y: 1822.912231}
  m_LocalScale: {x: 0.400000, y: 0.400000}
  m_Parent: {fileID: 72}
--- !u!212 &265
SpriteRenderer:
  m_GameObject: {fileID: 72}
  m_Enable: 1
  m_Sprite: {fileName: Decorations/rocks2}
  m_Flip: 0
  m_Color: {r: 1.000000, g: 1.000000, b: 1.000000, a: 1.000000}
  m_RenderType: {type: Stretch}
  m_Slice: {x: 0.000000, y: 0.000000, w: 0.000000, h: 0.000000}
  m_Order: 0
--- !u!1 &73
GameObject:
  m_Layer: 
  m_Name: rocks_type3_0
  m_TagString: Untagged
  m_IsActive: 1
--- !u!4 &266
Transform:
  m_GameObject: {fileID: 73}
  m_LocalEulerAngles: {v: 0.000000}
  m_LocalPosition: {x: 2613.869141, y: 776.862183}
  m_LocalScale: {x: 0.510000, y: 0.510000}
  m_Parent: {fileID: 73}
--- !u!212 &267
SpriteRenderer:
  m_GameObject: {fileID: 73}
  m_Enable: 1
  m_Sprite: {fileName: Decorations/rocks3}
  m_Flip: 0
  m_Color: {r: 1.000000, g: 1.000000, b: 1.000000, a: 1.000000}
  m_RenderType: {type: Stretch}
  m_Slice: {x: 0.000000, y: 0.000000, w: 0.000000, h: 0.000000}
  m_Order: 0
--- !u!1 &74
GameObject:
  m_Layer: 
  m_Name: Canvas
  m_TagString: Untagged
  m_IsActive: 1
--- !u!4 &268
Transform:
  m_GameObject: {fileID: 74}
  m_LocalEulerAngles: {v: 0.000000}
  m_LocalPosition: {x: -966.318237, y: -543.062012}
  m_LocalScale: {x: 1.000000, y: 1.000000}
  m_Parent: {fileID: 1}
--- !u!1 &75
GameObject:
  m_Layer: 
  m_Name: DuckUI
  m_TagString: Untagged
  m_IsActive: 1
--- !u!4 &269
Transform:
  m_GameObject: {fileID: 75}
  m_LocalEulerAngles: {v: 0.000000}
  m_LocalPosition: {x: 0.000000, y: 0.000000}
  m_LocalScale: {x: 1.000000, y: 1.000000}
  m_Parent: {fileID: 74}
--- !u!1 &76
GameObject:
  m_Layer: 
  m_Name: BulletText
  m_TagString: Untagged
  m_IsActive: 1
--- !u!4 &270
Transform:
  m_GameObject: {fileID: 76}
  m_LocalEulerAngles: {v: 0.000000}
  m_LocalPosition: {x: 268.000000, y: 155.574646}
  m_LocalScale: {x: 117.779999, y: 13.500000}
  m_Parent: {fileID: 75}
--- !u!102 &271
TextRenderer:
  m_GameObject: {fileID: 76}
  m_Enable: 1
  m_Text: {textData: 10}
  m_Font: {fileName: GeosansLight.ttf}
  m_FontStyle: 1
  m_FontSize: 40.000000
  m_FontColor: {r: 1.000000, g: 1.000000, b: 1.000000, a: 1.000000}
  m_Order: 10
--- !u!1 &77
GameObject:
  m_Layer: 
  m_Name: HealthBarBG
  m_TagString: Untagged
  m_IsActive: 1
--- !u!4 &272
Transform:
  m_GameObject: {fileID: 77}
  m_LocalEulerAngles: {v: 0.000000}
  m_LocalPosition: {x: 166.981964, y: 85.717072}
  m_LocalScale: {x: 4.000000, y: 1.000000}
  m_Parent: {fileID: 75}
--- !u!212 &273
SpriteRenderer:
  m_GameObject: {fileID: 77}
  m_Enable: 1
  m_Sprite: {fileName: whiteBox}
  m_Flip: 0
  m_Color: {r: 0.137255, g: 0.137254, b: 0.137254, a: 1.000000}
  m_RenderType: {type: Stretch}
  m_Slice: {x: 30.000000, y: 30.000000, w: 30.000000, h: 30.000000}
  m_Order: 10
--- !u!1 &78
GameObject:
  m_Layer: 
  m_Name: HealthBar
  m_TagString: Untagged
  m_IsActive: 1
--- !u!4 &274
Transform:
  m_GameObject: {fileID: 78}
  m_LocalEulerAngles: {v: 0.000000}
  m_LocalPosition: {x: 0.000000, y: 0.000000}
  m_LocalScale: {x: 1.000000, y: 1.000000}
  m_Parent: {fileID: 77}
--- !u!212 &275
SpriteRenderer:
  m_GameObject: {fileID: 78}
  m_Enable: 1
  m_Sprite: {fileName: whiteBox}
  m_Flip: 0
  m_Color: {r: 0.901961, g: 0.337585, b: 0.216647, a: 1.000000}
  m_RenderType: {type: Stretch}
  m_Slice: {x: 30.000000, y: 30.000000, w: 30.000000, h: 30.000000}
  m_Order: 11
--- !u!1 &79
GameObject:
  m_Layer: 
  m_Name: HealthText
  m_TagString: Untagged
  m_IsActive: 1
--- !u!4 &276
Transform:
  m_GameObject: {fileID: 79}
  m_LocalEulerAngles: {v: 0.000000}
  m_LocalPosition: {x: 0.000000, y: 0.000000}
  m_LocalScale: {x: 200.000000, y: 1.000000}
  m_Parent: {fileID: 77}
--- !u!102 &277
TextRenderer:
  m_GameObject: {fileID: 79}
  m_Enable: 1
  m_Text: {textData: 8/8}
  m_Font: {fileName: GeosansLight.ttf}
  m_FontStyle: 1
  m_FontSize: 50.000000
  m_FontColor: {r: 1.000000, g: 1.000000, b: 1.000000, a: 1.000000}
  m_Order: 12
--- !u!1 &80
GameObject:
  m_Layer: 
  m_Name: MissionHolder
  m_TagString: Untagged
  m_IsActive: 1
--- !u!4 &278
Transform:
  m_GameObject: {fileID: 80}
  m_LocalEulerAngles: {v: 0.000000}
  m_LocalPosition: {x: 1770.818359, y: 66.430466}
  m_LocalScale: {x: 1.000000, y: 1.000000}
  m_Parent: {fileID: 74}
--- !u!1 &81
GameObject:
  m_Layer: 
  m_Name: MissionBG
  m_TagString: Untagged
  m_IsActive: 1
--- !u!4 &279
Transform:
  m_GameObject: {fileID: 81}
  m_LocalEulerAngles: {v: 0.000000}
  m_LocalPosition: {x: -11.074219, y: 0.000000}
  m_LocalScale: {x: 1.243516, y: 0.358311}
  m_Parent: {fileID: 80}
--- !u!212 &280
SpriteRenderer:
  m_GameObject: {fileID: 81}
  m_Enable: 1
  m_Sprite: {fileName: Panel_30}
  m_Flip: 0
  m_Color: {r: 0.000000, g: 0.000000, b: 0.000000, a: 0.529412}
  m_RenderType: {type: Slice}
  m_Slice: {x: 30.000000, y: 30.000000, w: 30.000000, h: 30.000000}
  m_Order: 10
--- !u!1 &82
GameObject:
  m_Layer: 
  m_Name: MissionText
  m_TagString: Untagged
  m_IsActive: 1
--- !u!4 &281
Transform:
  m_GameObject: {fileID: 82}
  m_LocalEulerAngles: {v: 0.000000}
  m_LocalPosition: {x: 0.000000, y: 0.000000}
  m_LocalScale: {x: 300.000000, y: 1.000000}
  m_Parent: {fileID: 80}
--- !u!102 &282
TextRenderer:
  m_GameObject: {fileID: 82}
  m_Enable: 1
  m_Text: {textData: Remaining chicken 7/10}
  m_Font: {fileName: GeosansLight.ttf}
  m_FontStyle: 1
  m_FontSize: 27.000000
  m_FontColor: {r: 1.000000, g: 1.000000, b: 1.000000, a: 1.000000}
  m_Order: 11
--- !u!1 &83
GameObject:
  m_Layer: 
  m_Name: GM
  m_TagString: Untagged
  m_IsActive: 1
--- !u!4 &283
Transform:
  m_GameObject: {fileID: 83}
  m_LocalEulerAngles: {v: 0.000000}
  m_LocalPosition: {x: 0.000000, y: 0.000000}
  m_LocalScale: {x: 1.000000, y: 1.000000}
  m_Parent: {fileID: 83}
--- !u!1 &84
GameObject:
  m_Layer: 
  m_Name: AimCurser
  m_TagString: Untagged
  m_IsActive: 1
--- !u!4 &284
Transform:
  m_GameObject: {fileID: 84}
  m_LocalEulerAngles: {v: 0.000000}
  m_LocalPosition: {x: 0.000000, y: 0.000000}
  m_LocalScale: {x: 0.250000, y: 0.250000}
  m_Parent: {fileID: 74}
--- !u!212 &285
SpriteRenderer:
  m_GameObject: {fileID: 84}
  m_Enable: 1
  m_Sprite: {fileName: UIs/AimCurser}
  m_Flip: 0
  m_Color: {r: 1.000000, g: 1.000000, b: 1.000000, a: 1.000000}
  m_RenderType: {type: Stretch}
  m_Slice: {x: 0.000000, y: 0.000000, w: 0.000000, h: 0.000000}
  m_Order: 15
--- !u!1 &85
GameObject:
  m_Layer: 
  m_Name: BulletIcon
  m_TagString: Untagged
  m_IsActive: 1
--- !u!4 &286
Transform:
  m_GameObject: {fileID: 85}
  m_LocalEulerAngles: {v: 0.000000}
  m_LocalPosition: {x: 223.181061, y: 153.628387}
  m_LocalScale: {x: 0.238693, y: 0.238693}
  m_Parent: {fileID: 75}
--- !u!212 &287
SpriteRenderer:
  m_GameObject: {fileID: 85}
  m_Enable: 1
  m_Sprite: {fileName: UIs/BulletIcon}
  m_Flip: 0
  m_Color: {r: 1.000000, g: 1.000000, b: 1.000000, a: 1.000000}
  m_RenderType: {type: Stretch}
  m_Slice: {x: 0.000000, y: 0.000000, w: 0.000000, h: 0.000000}
  m_Order: 10
--- !u!1 &86
GameObject:
  m_Layer: 
  m_Name: ChargeHolder
  m_TagString: Untagged
  m_IsActive: 1
--- !u!4 &288
Transform:
  m_GameObject: {fileID: 86}
  m_LocalEulerAngles: {v: 0.000000}
  m_LocalPosition: {x: 110.684647, y: 154.072205}
  m_LocalScale: {x: 0.500000, y: 0.500000}
  m_Parent: {fileID: 74}
--- !u!1 &87
GameObject:
  m_Layer: 
  m_Name: ChargeFrame
  m_TagString: Untagged
  m_IsActive: 1
--- !u!4 &289
Transform:
  m_GameObject: {fileID: 87}
  m_LocalEulerAngles: {v: 0.000000}
  m_LocalPosition: {x: 0.000000, y: 0.000000}
  m_LocalScale: {x: 1.000000, y: 1.000000}
  m_Parent: {fileID: 86}
--- !u!212 &290
SpriteRenderer:
  m_GameObject: {fileID: 87}
  m_Enable: 1
  m_Sprite: {fileName: UIs/Charge_Frame}
  m_Flip: 0
  m_Color: {r: 1.000000, g: 1.000000, b: 1.000000, a: 1.000000}
  m_RenderType: {type: Stretch}
  m_Slice: {x: 0.000000, y: 0.000000, w: 0.000000, h: 0.000000}
  m_Order: 12
--- !u!1 &88
GameObject:
  m_Layer: 
  m_Name: ChargeBG
  m_TagString: Untagged
  m_IsActive: 1
--- !u!4 &291
Transform:
  m_GameObject: {fileID: 88}
  m_LocalEulerAngles: {v: 0.000000}
  m_LocalPosition: {x: 0.000000, y: 0.000000}
  m_LocalScale: {x: 3.605914, y: 1.156977}
  m_Parent: {fileID: 86}
--- !u!212 &292
SpriteRenderer:
  m_GameObject: {fileID: 88}
  m_Enable: 1
  m_Sprite: {fileName: whiteBox}
  m_Flip: 0
  m_Color: {r: 0.137255, g: 0.137255, b: 0.137255, a: 1.000000}
  m_RenderType: {type: Stretch}
  m_Slice: {x: 0.000000, y: 0.000000, w: 0.000000, h: 0.000000}
  m_Order: 10
--- !u!1 &89
GameObject:
  m_Layer: 
  m_Name: ChargeBar
  m_TagString: Untagged
  m_IsActive: 1
--- !u!4 &293
Transform:
  m_GameObject: {fileID: 89}
  m_LocalEulerAngles: {v: 0.000000}
  m_LocalPosition: {x: 0.000000, y: 0.000000}
  m_LocalScale: {x: 3.644000, y: 1.258503}
  m_Parent: {fileID: 86}
--- !u!212 &294
SpriteRenderer:
  m_GameObject: {fileID: 89}
  m_Enable: 1
  m_Sprite: {fileName: whiteBox}
  m_Flip: 0
  m_Color: {r: 0.362745, g: 0.718858, b: 1.000000, a: 1.000000}
  m_RenderType: {type: Stretch}
  m_Slice: {x: 0.000000, y: 0.000000, w: 0.000000, h: 0.000000}
  m_Order: 11
--- !u!1 &90
GameObject:
  m_Layer: solid_layer
  m_Name: Boss
  m_TagString: Chicken
  m_IsActive: 0
--- !u!4 &295
Transform:
  m_GameObject: {fileID: 90}
  m_LocalEulerAngles: {v: 0.000000}
  m_LocalPosition: {x: -170.000000, y: 30.000000}
  m_LocalScale: {x: 1.000000, y: 1.000000}
  m_Parent: {fileID: 90}
--- !u!54 &296
Rigidbody:
  m_GameObject: {fileID: 90}
  m_Mass: 50.000000
  m_Drag: 10.000000
  m_AngularDrag: 0.800000
  m_GravityScale: 0.000000
  m_Simulated: 1
--- !u!95 &297
Animator:
  m_GameObject: {fileID: 90}
  m_Enable: 
--- !u!212 &298
SpriteRenderer:
  m_GameObject: {fileID: 90}
  m_Enable: 1
  m_Sprite: {fileName: Boss/BossSpriteDead}
  m_Flip: 0
  m_Color: {r: 1.000000, g: 1.000000, b: 1.000000, a: 1.000000}
  m_RenderType: {type: Stretch}
  m_Slice: {x: 0.000000, y: 0.000000, w: 0.000000, h: 0.000000}
  m_Order: 6
--- !u!58 &299
CircleCollider:
  m_GameObject: {fileID: 90}
  m_Enable: 1
  m_Density: 0.000000
  m_IsTrigger: 0
  m_Offset: {x: 13.000000, y: 26.000000}
  m_Radius: 92.000000
--- !u!1 &91
GameObject:
  m_Layer: 
  m_Name: BossHead
  m_TagString: Untagged
  m_IsActive: 1
--- !u!4 &300
Transform:
  m_GameObject: {fileID: 91}
  m_LocalEulerAngles: {v: 0.000000}
  m_LocalPosition: {x: 0.000000, y: -139.363861}
  m_LocalScale: {x: 1.000000, y: 1.000000}
  m_Parent: {fileID: 90}
--- !u!1 &92
GameObject:
  m_Layer: 
  m_Name: BossUIHolder
  m_TagString: Untagged
  m_IsActive: 0
--- !u!4 &301
Transform:
  m_GameObject: {fileID: 92}
  m_LocalEulerAngles: {v: 0.000000}
  m_LocalPosition: {x: 960.000000, y: 90.000000}
  m_LocalScale: {x: 1.000000, y: 1.000000}
  m_Parent: {fileID: 74}
--- !u!1 &93
GameObject:
  m_Layer: 
  m_Name: BossHealthBarBG
  m_TagString: Untagged
  m_IsActive: 1
--- !u!4 &302
Transform:
  m_GameObject: {fileID: 93}
  m_LocalEulerAngles: {v: 0.000000}
  m_LocalPosition: {x: 0.000000, y: -20.000000}
  m_LocalScale: {x: 16.000000, y: 0.300000}
  m_Parent: {fileID: 92}
--- !u!212 &303
SpriteRenderer:
  m_GameObject: {fileID: 93}
  m_Enable: 1
  m_Sprite: {fileName: whiteBox}
  m_Flip: 0
  m_Color: {r: 0.137255, g: 0.137255, b: 0.137255, a: 1.000000}
  m_RenderType: {type: Stretch}
  m_Slice: {x: 0.000000, y: 0.000000, w: 0.000000, h: 0.000000}
  m_Order: 10
--- !u!1 &94
GameObject:
  m_Layer: 
  m_Name: BossHealthBar
  m_TagString: Untagged
  m_IsActive: 1
--- !u!4 &304
Transform:
  m_GameObject: {fileID: 94}
  m_LocalEulerAngles: {v: 0.000000}
  m_LocalPosition: {x: 0.000000, y: 0.000000}
  m_LocalScale: {x: 1.000000, y: 1.000000}
  m_Parent: {fileID: 93}
--- !u!212 &305
SpriteRenderer:
  m_GameObject: {fileID: 94}
  m_Enable: 1
  m_Sprite: {fileName: whiteBox}
  m_Flip: 0
  m_Color: {r: 0.666667, g: 0.000000, b: 0.000040, a: 1.000000}
  m_RenderType: {type: Stretch}
  m_Slice: {x: 0.000000, y: 0.000000, w: 0.000000, h: 0.000000}
  m_Order: 12
--- !u!1 &95
GameObject:
  m_Layer: 
  m_Name: BossNameText
  m_TagString: Untagged
  m_IsActive: 1
--- !u!4 &306
Transform:
  m_GameObject: {fileID: 95}
  m_LocalEulerAngles: {v: 0.000000}
  m_LocalPosition: {x: 0.000000, y: 10.000000}
  m_LocalScale: {x: 100.000000, y: 1.000000}
  m_Parent: {fileID: 92}
--- !u!102 &307
TextRenderer:
  m_GameObject: {fileID: 95}
  m_Enable: 1
  m_Text: {textData: Pok Pok}
  m_Font: {fileName: GeosansLight.ttf}
  m_FontStyle: 1
  m_FontSize: 27.000000
  m_FontColor: {r: 0.720588, g: 0.014129, b: 0.014129, a: 1.000000}
  m_Order: 11
--- !u!1 &96
GameObject:
  m_Layer: 
  m_Name: BossHealthBarInner
  m_TagString: Untagged
  m_IsActive: 1
--- !u!4 &308
Transform:
  m_GameObject: {fileID: 96}
  m_LocalEulerAngles: {v: 0.000000}
  m_LocalPosition: {x: 0.000000, y: 0.000000}
  m_LocalScale: {x: 1.000000, y: 1.000000}
  m_Parent: {fileID: 93}
--- !u!212 &309
SpriteRenderer:
  m_GameObject: {fileID: 96}
  m_Enable: 1
  m_Sprite: {fileName: whiteBox}
  m_Flip: 0
  m_Color: {r: 1.000000, g: 1.000000, b: 1.000000, a: 1.000000}
  m_RenderType: {type: Stretch}
  m_Slice: {x: 0.000000, y: 0.000000, w: 0.000000, h: 0.000000}
  m_Order: 11
