%YAML 1.1
%TAG !u! tag:ducklingsengine:
--- !u!1 &1
GameObject:
  m_Layer: Empty Layer
  m_Name: Main Camera
  m_TagString: Untagged
  m_IsActive: 1
--- !u!4 &2
Transform:
  m_GameObject: {fileID: 1}
  m_LocalEulerAngles: {v: 0.000000}
  m_LocalPosition: {x: 960.000000, y: 540.000000}
  m_LocalScale: {x: 1.000000, y: 1.000000}
  m_Parent: {fileID: 1}
--- !u!20 &3
Camera:
  m_GameObject: {fileID: 1}
  m_Enable: 1
  m_Rect: {x: 1920.000000, y: 1080.000000}
  m_BackgroundColor: {r: 1.000000, g: 1.000000, b: 1.000000, a: 1.000000}