%YAML 1.1
%TAG !u! tag:ducklingsengine:
--- !u!1 &1
GameObject:
  m_Layer: 
  m_Name: Main Camera
  m_TagString: Untagged
  m_IsActive: 1
--- !u!4 &6
Transform:
  m_GameObject: {fileID: 1}
  m_LocalEulerAngles: {v: 0.000000}
  m_LocalPosition: {x: 0.000000, y: 0.000000}
  m_LocalScale: {x: 1.000000, y: 1.000000}
  m_Parent: {fileID: 1}
--- !u!20 &7
Camera:
  m_GameObject: {fileID: 1}
  m_Enable: 1
  m_Rect: {x: 1920.000000, y: 1080.000000}
  m_BackgroundColor: {r: 1.000000, g: 1.000000, b: 1.000000, a: 1.000000}
--- !u!1 &2
GameObject:
  m_Layer: 
  m_Name: Cutscene
  m_TagString: Untagged
  m_IsActive: 1
--- !u!4 &8
Transform:
  m_GameObject: {fileID: 2}
  m_LocalEulerAngles: {v: 0.000000}
  m_LocalPosition: {x: 0.000000, y: 0.000000}
  m_LocalScale: {x: 2.000000, y: 2.000000}
  m_Parent: {fileID: 2}
--- !u!212 &9
SpriteRenderer:
  m_GameObject: {fileID: 2}
  m_Enable: 1
  m_Sprite: {fileName: Cutscenes/1-1}
  m_Flip: 0
  m_Color: {r: 1.000000, g: 1.000000, b: 1.000000, a: 1.000000}
  m_RenderType: {type: Stretch}
  m_Slice: {x: 0.000000, y: 0.000000, w: 0.000000, h: 0.000000}
  m_Order: 0
--- !u!1 &3
GameObject:
  m_Layer: 
  m_Name: foreground 1
  m_TagString: Untagged
  m_IsActive: 1
--- !u!4 &10
Transform:
  m_GameObject: {fileID: 3}
  m_LocalEulerAngles: {v: 0.000000}
  m_LocalPosition: {x: -1920.000000, y: 0.000000}
  m_LocalScale: {x: 2.000000, y: 2.000000}
  m_Parent: {fileID: 3}
--- !u!212 &11
SpriteRenderer:
  m_GameObject: {fileID: 3}
  m_Enable: 1
  m_Sprite: {fileName: Cutscenes/1-2}
  m_Flip: 0
  m_Color: {r: 1.000000, g: 1.000000, b: 1.000000, a: 1.000000}
  m_RenderType: {type: Stretch}
  m_Slice: {x: 0.000000, y: 0.000000, w: 0.000000, h: 0.000000}
  m_Order: 1
--- !u!1 &4
GameObject:
  m_Layer: 
  m_Name: foreground 2
  m_TagString: Untagged
  m_IsActive: 1
--- !u!4 &12
Transform:
  m_GameObject: {fileID: 4}
  m_LocalEulerAngles: {v: 0.000000}
  m_LocalPosition: {x: 0.000000, y: 1080.000000}
  m_LocalScale: {x: 2.000000, y: 2.000000}
  m_Parent: {fileID: 4}
--- !u!212 &13
SpriteRenderer:
  m_GameObject: {fileID: 4}
  m_Enable: 1
  m_Sprite: {fileName: Cutscenes/2-3}
  m_Flip: 0
  m_Color: {r: 1.000000, g: 1.000000, b: 1.000000, a: 1.000000}
  m_RenderType: {type: Stretch}
  m_Slice: {x: 0.000000, y: 0.000000, w: 0.000000, h: 0.000000}
  m_Order: 2
--- !u!1 &5
GameObject:
  m_Layer: 
  m_Name: Cutscene Script
  m_TagString: Untagged
  m_IsActive: 1
--- !u!4 &14
Transform:
  m_GameObject: {fileID: 5}
  m_LocalEulerAngles: {v: 0.000000}
  m_LocalPosition: {x: 0.000000, y: 0.000000}
  m_LocalScale: {x: 1.000000, y: 1.000000}
  m_Parent: {fileID: 5}
