%YAML 1.1
%TAG !u! tag:ducklingsengine:
--- !u!1 &1
GameObject:
  m_Layer: 
  m_Name: Background
  m_TagString: Untagged
  m_IsActive: 1
--- !u!4 &4
Transform:
  m_GameObject: {fileID: 1}
  m_LocalEulerAngles: {v: 0.000000}
  m_LocalPosition: {x: 631.000000, y: 358.000000}
  m_LocalScale: {x: 1.000000, y: 1.000000}
  m_Parent: {fileID: 1}
--- !u!1 &2
GameObject:
  m_Layer: 
  m_Name: Ball
  m_TagString: Untagged
  m_IsActive: 1
--- !u!4 &5
Transform:
  m_GameObject: {fileID: 2}
  m_LocalEulerAngles: {v: 0.000000}
  m_LocalPosition: {x: -106.797729, y: -60.355408}
  m_LocalScale: {x: 1.000000, y: 1.000000}
  m_Parent: {fileID: 2}
--- !u!212 &6
SpriteRenderer:
  m_GameObject: {fileID: 2}
  m_Enable: 1
  m_Sprite: {fileName: ball}
  m_Flip: 0
  m_Color: {r: 1.000000, g: 1.000000, b: 1.000000, a: 1.000000}
  m_RenderType: {type: Stretch}
  m_Slice: {x: 0.000000, y: 0.000000, w: 0.000000, h: 0.000000}
  m_Order: 0
--- !u!1 &3
GameObject:
  m_Layer: 
  m_Name: Main Camera
  m_TagString: Untagged
  m_IsActive: 1
--- !u!4 &7
Transform:
  m_GameObject: {fileID: 3}
  m_LocalEulerAngles: {v: 0.000000}
  m_LocalPosition: {x: 0.000000, y: 0.000000}
  m_LocalScale: {x: 1.000000, y: 1.000000}
  m_Parent: {fileID: 3}
--- !u!20 &8
Camera:
  m_GameObject: {fileID: 3}
  m_Enable: 1
  m_Rect: {x: 1920.000000, y: 1080.000000}
  m_BackgroundColor: {r: 1.000000, g: 1.000000, b: 1.000000, a: 1.000000}
